Parte B/simulation/qsim/FPGA_Parte_B.msim.vcd
$comment
	File created using the following command:
		vcd file FPGA_Parte_B.msim.vcd -direction
$end
$date
	Wed Nov 06 23:31:10 2024
$end
$version
	ModelSim Version 10.1d
$end
$timescale
	1ps
$end
$scope module restador_completo_vlg_vec_tst $end
$var reg 1 ! clk $end
$var reg 1 " ext_A $end
$var reg 1 # ext_B $end
$var reg 1 $ ext_Borrow_in $end
$var wire 1 % ext_Borrow_out $end
$var wire 1 & ext_D $end
$var wire 1 ' sampler $end
$scope module i1 $end
$var wire 1 ( gnd $end
$var wire 1 ) vcc $end
$var wire 1 * unknown $end
$var tri1 1 + devclrn $end
$var tri1 1 , devpor $end
$var tri1 1 - devoe $end
$var wire 1 . ext_D~output_o $end
$var wire 1 / ext_Borrow_out~output_o $end
$var wire 1 0 clk~input_o $end
$var wire 1 1 clk~inputclkctrl_outclk $end
$var wire 1 2 ext_A~input_o $end
$var wire 1 3 FF_A|Q~feeder_combout $end
$var wire 1 4 FF_A|Q~q $end
$var wire 1 5 ext_B~input_o $end
$var wire 1 6 FF_B|Q~feeder_combout $end
$var wire 1 7 FF_B|Q~q $end
$var wire 1 8 ext_Borrow_in~input_o $end
$var wire 1 9 FF_Borrow_in|Q~feeder_combout $end
$var wire 1 : FF_Borrow_in|Q~q $end
$var wire 1 ; d~0_combout $end
$var wire 1 < FF_Diff|Q~q $end
$var wire 1 = bout~0_combout $end
$var wire 1 > FF_Borrow_out|Q~q $end
$upscope $end
$upscope $end
$enddefinitions $end
#0
$dumpvars
0!
0"
0#
0$
x%
x&
x'
0(
1)
x*
1+
1,
1-
x.
x/
00
x1
02
x3
04
05
x6
07
08
x9
0:
x;
0<
x=
0>
$end
#173
01
#809
0=
#830
0;
#2676
0/
0%
#2971
0.
0&
#3116
06
#3394
09
#6724
03
#10000
1!
0'
#10819
10
#11006
11
#12500
1$
1'
#13319
18
#16508
19
#20000
0!
0'
#20924
00
#21097
01
#25000
1#
0$
1'
#25779
15
#25924
08
#28659
16
#29318
09
#30000
1!
0'
#30819
10
#31006
11
#33392
17
#33940
1;
#33942
1=
#37500
1$
1'
#38319
18
#40000
0!
0'
#40924
00
#41097
01
#41508
19
#50000
1"
0#
0$
1!
1'
#50806
12
#50819
10
#50884
05
#50924
08
#51006
11
#53392
1:
1<
1>
#53795
0;
#54000
06
#54318
09
#56040
1/
1%
#56346
1.
1&
#57040
13
#60000
0!
0'
#60924
00
#61097
01
#62500
1$
1'
#63319
18
#66508
19
#70000
1!
0'
#70819
10
#71006
11
#73392
14
07
0<
#73979
0=
#75000
1#
0$
1'
#75779
15
#75924
08
#76363
0.
0&
#78659
16
#79318
09
#80000
0!
0'
#80924
00
#81097
01
#87500
1$
1'
#88319
18
#90000
1!
0'
#90819
10
#91006
11
#91508
19
#93392
17
0>
#93940
1;
#93942
1=
#96068
0/
0%
#100000
0"
0#
0$
0!
1'
#100884
05
#100913
02
#100924
00
08
#101097
01
#104000
06
#104318
09
#107637
03
#110000
1!
0'
#110819
10
#111006
11
#112500
1$
1'
#113319
18
#113392
04
07
0:
1<
1>
#114021
0=
#114222
0;
#116040
1/
1%
#116346
1.
1&
#116508
19
#120000
0!
0'
#120924
00
#121097
01
#125000
1#
0$
1'
#125779
15
#125924
08
#128659
16
#129318
09
#130000
1!
0'
#130819
10
#131006
11
#133392
17
0<
0>
#133940
1;
#133942
1=
#136068
0/
0%
#136363
0.
0&
#137500
1$
1'
#138319
18
#140000
0!
0'
#140924
00
#141097
01
#141508
19
#150000
1"
0#
0$
1!
1'
#150806
12
#150819
10
#150884
05
#150924
08
#151006
11
#153392
1:
1<
1>
#153795
0;
#154000
06
#154318
09
#156040
1/
1%
#156346
1.
1&
#157040
13
#160000
0!
0'
#160924
00
#161097
01
#162500
1$
1'
#163319
18
#166508
19
#170000
1!
0'
#170819
10
#171006
11
#173392
14
07
0<
#173979
0=
#175000
1#
0$
1'
#175779
15
#175924
08
#176363
0.
0&
#178659
16
#179318
09
#180000
0!
0'
#180924
00
#181097
01
#187500
1$
1'
#188319
18
#190000
1!
0'
#190819
10
#191006
11
#191508
19
#193392
17
0>
#193940
1;
#193942
1=
#196068
0/
0%
#200000
0"
0#
0$
0!
1'
#200884
05
#200913
02
#200924
00
08
#201097
01
#204000
06
#204318
09
#207637
03
#210000
1!
0'
#210819
10
#211006
11
#212500
1$
1'
#213319
18
#213392
04
07
0:
1<
1>
#214021
0=
#214222
0;
#216040
1/
1%
#216346
1.
1&
#216508
19
#220000
0!
0'
#220924
00
#221097
01
#225000
1#
0$
1'
#225779
15
#225924
08
#228659
16
#229318
09
#230000
1!
0'
#230819
10
#231006
11
#233392
17
0<
0>
#233940
1;
#233942
1=
#236068
0/
0%
#236363
0.
0&
#237500
1$
1'
#238319
18
#240000
0!
0'
#240924
00
#241097
01
#241508
19
#250000
1"
0#
0$
1!
1'
#250806
12
#250819
10
#250884
05
#250924
08
#251006
11
#253392
1:
1<
1>
#253795
0;
#254000
06
#254318
09
#256040
1/
1%
#256346
1.
1&
#257040
13
#260000
0!
0'
#260924
00
#261097
01
#262500
1$
1'
#263319
18
#266508
19
#270000
1!
0'
#270819
10
#271006
11
#273392
14
07
0<
#273979
0=
#275000
1#
0$
1'
#275779
15
#275924
08
#276363
0.
0&
#278659
16
#279318
09
#280000
0!
0'
#280924
00
#281097
01
#287500
1$
1'
#288319
18
#290000
1!
0'
#290819
10
#291006
11
#291508
19
#293392
17
0>
#293940
1;
#293942
1=
#296068
0/
0%
#300000
0"
0#
0$
0!
1'
#300884
05
#300913
02
#300924
00
08
#301097
01
#304000
06
#304318
09
#307637
03
#310000
1!
0'
#310819
10
#311006
11
#312500
1$
1'
#313319
18
#313392
04
07
0:
1<
1>
#314021
0=
#314222
0;
#316040
1/
1%
#316346
1.
1&
#316508
19
#320000
0!
0'
#320924
00
#321097
01
#325000
1#
0$
1'
#325779
15
#325924
08
#328659
16
#329318
09
#330000
1!
0'
#330819
10
#331006
11
#333392
17
0<
0>
#333940
1;
#333942
1=
#336068
0/
0%
#336363
0.
0&
#337500
1$
1'
#338319
18
#340000
0!
0'
#340924
00
#341097
01
#341508
19
#350000
1"
0#
0$
1!
1'
#350806
12
#350819
10
#350884
05
#350924
08
#351006
11
#353392
1:
1<
1>
#353795
0;
#354000
06
#354318
09
#356040
1/
1%
#356346
1.
1&
#357040
13
#360000
0!
0'
#360924
00
#361097
01
#362500
1$
1'
#363319
18
#366508
19
#370000
1!
0'
#370819
10
#371006
11
#373392
14
07
0<
#373979
0=
#375000
1#
0$
1'
#375779
15
#375924
08
#376363
0.
0&
#378659
16
#379318
09
#380000
0!
0'
#380924
00
#381097
01
#387500
1$
1'
#388319
18
#390000
1!
0'
#390819
10
#391006
11
#391508
19
#393392
17
0>
#393940
1;
#393942
1=
#396068
0/
0%
#400000
0"
0#
0$
0!
1'
#400884
05
#400913
02
#400924
00
08
#401097
01
#404000
06
#404318
09
#407637
03
#410000
1!
0'
#410819
10
#411006
11
#412500
1$
1'
#413319
18
#413392
04
07
0:
1<
1>
#414021
0=
#414222
0;
#416040
1/
1%
#416346
1.
1&
#416508
19
#420000
0!
0'
#420924
00
#421097
01
#425000
1#
0$
1'
#425779
15
#425924
08
#428659
16
#429318
09
#430000
1!
0'
#430819
10
#431006
11
#433392
17
0<
0>
#433940
1;
#433942
1=
#436068
0/
0%
#436363
0.
0&
#437500
1$
1'
#438319
18
#440000
0!
0'
#440924
00
#441097
01
#441508
19
#450000
1"
0#
0$
1!
1'
#450806
12
#450819
10
#450884
05
#450924
08
#451006
11
#453392
1:
1<
1>
#453795
0;
#454000
06
#454318
09
#456040
1/
1%
#456346
1.
1&
#457040
13
#460000
0!
0'
#460924
00
#461097
01
#462500
1$
1'
#463319
18
#466508
19
#470000
1!
0'
#470819
10
#471006
11
#473392
14
07
0<
#473979
0=
#475000
1#
0$
1'
#475779
15
#475924
08
#476363
0.
0&
#478659
16
#479318
09
#480000
0!
0'
#480924
00
#481097
01
#487500
1$
1'
#488319
18
#490000
1!
0'
#490819
10
#491006
11
#491508
19
#493392
17
0>
#493940
1;
#493942
1=
#496068
0/
0%
#500000
0"
0#
0$
0!
1'
#500884
05
#500913
02
#500924
00
08
#501097
01
#504000
06
#504318
09
#507637
03
#510000
1!
0'
#510819
10
#511006
11
#512500
1$
1'
#513319
18
#513392
04
07
0:
1<
1>
#514021
0=
#514222
0;
#516040
1/
1%
#516346
1.
1&
#516508
19
#520000
0!
0'
#520924
00
#521097
01
#525000
1#
0$
1'
#525779
15
#525924
08
#528659
16
#529318
09
#530000
1!
0'
#530819
10
#531006
11
#533392
17
0<
0>
#533940
1;
#533942
1=
#536068
0/
0%
#536363
0.
0&
#537500
1$
1'
#538319
18
#540000
0!
0'
#540924
00
#541097
01
#541508
19
#550000
1"
0#
0$
1!
1'
#550806
12
#550819
10
#550884
05
#550924
08
#551006
11
#553392
1:
1<
1>
#553795
0;
#554000
06
#554318
09
#556040
1/
1%
#556346
1.
1&
#557040
13
#560000
0!
0'
#560924
00
#561097
01
#562500
1$
1'
#563319
18
#566508
19
#570000
1!
0'
#570819
10
#571006
11
#573392
14
07
0<
#573979
0=
#575000
1#
0$
1'
#575779
15
#575924
08
#576363
0.
0&
#578659
16
#579318
09
#580000
0!
0'
#580924
00
#581097
01
#587500
1$
1'
#588319
18
#590000
1!
0'
#590819
10
#591006
11
#591508
19
#593392
17
0>
#593940
1;
#593942
1=
#596068
0/
0%
#600000
0"
0#
0$
0!
1'
#600884
05
#600913
02
#600924
00
08
#601097
01
#604000
06
#604318
09
#607637
03
#610000
1!
0'
#610819
10
#611006
11
#612500
1$
1'
#613319
18
#613392
04
07
0:
1<
1>
#614021
0=
#614222
0;
#616040
1/
1%
#616346
1.
1&
#616508
19
#620000
0!
0'
#620924
00
#621097
01
#625000
1#
0$
1'
#625779
15
#625924
08
#628659
16
#629318
09
#630000
1!
0'
#630819
10
#631006
11
#633392
17
0<
0>
#633940
1;
#633942
1=
#636068
0/
0%
#636363
0.
0&
#637500
1$
1'
#638319
18
#640000
0!
0'
#640924
00
#641097
01
#641508
19
#650000
1"
0#
0$
1!
1'
#650806
12
#650819
10
#650884
05
#650924
08
#651006
11
#653392
1:
1<
1>
#653795
0;
#654000
06
#654318
09
#656040
1/
1%
#656346
1.
1&
#657040
13
#660000
0!
0'
#660924
00
#661097
01
#662500
1$
1'
#663319
18
#666508
19
#670000
1!
0'
#670819
10
#671006
11
#673392
14
07
0<
#673979
0=
#675000
1#
0$
1'
#675779
15
#675924
08
#676363
0.
0&
#678659
16
#679318
09
#680000
0!
0'
#680924
00
#681097
01
#687500
1$
1'
#688319
18
#690000
1!
0'
#690819
10
#691006
11
#691508
19
#693392
17
0>
#693940
1;
#693942
1=
#696068
0/
0%
#700000
0"
0#
0$
0!
1'
#700884
05
#700913
02
#700924
00
08
#701097
01
#704000
06
#704318
09
#707637
03
#710000
1!
0'
#710819
10
#711006
11
#712500
1$
1'
#713319
18
#713392
04
07
0:
1<
1>
#714021
0=
#714222
0;
#716040
1/
1%
#716346
1.
1&
#716508
19
#720000
0!
0'
#720924
00
#721097
01
#725000
1#
0$
1'
#725779
15
#725924
08
#728659
16
#729318
09
#730000
1!
0'
#730819
10
#731006
11
#733392
17
0<
0>
#733940
1;
#733942
1=
#736068
0/
0%
#736363
0.
0&
#737500
1$
1'
#738319
18
#740000
0!
0'
#740924
00
#741097
01
#741508
19
#750000
1"
0#
0$
1!
1'
#750806
12
#750819
10
#750884
05
#750924
08
#751006
11
#753392
1:
1<
1>
#753795
0;
#754000
06
#754318
09
#756040
1/
1%
#756346
1.
1&
#757040
13
#760000
0!
0'
#760924
00
#761097
01
#762500
1$
1'
#763319
18
#766508
19
#770000
1!
0'
#770819
10
#771006
11
#773392
14
07
0<
#773979
0=
#775000
1#
0$
1'
#775779
15
#775924
08
#776363
0.
0&
#778659
16
#779318
09
#780000
0!
0'
#780924
00
#781097
01
#787500
1$
1'
#788319
18
#790000
1!
0'
#790819
10
#791006
11
#791508
19
#793392
17
0>
#793940
1;
#793942
1=
#796068
0/
0%
#800000
0"
0#
0$
0!
1'
#800884
05
#800913
02
#800924
00
08
#801097
01
#804000
06
#804318
09
#807637
03
#810000
1!
0'
#810819
10
#811006
11
#812500
1$
1'
#813319
18
#813392
04
07
0:
1<
1>
#814021
0=
#814222
0;
#816040
1/
1%
#816346
1.
1&
#816508
19
#820000
0!
0'
#820924
00
#821097
01
#825000
1#
0$
1'
#825779
15
#825924
08
#828659
16
#829318
09
#830000
1!
0'
#830819
10
#831006
11
#833392
17
0<
0>
#833940
1;
#833942
1=
#836068
0/
0%
#836363
0.
0&
#837500
1$
1'
#838319
18
#840000
0!
0'
#840924
00
#841097
01
#841508
19
#850000
1"
0#
0$
1!
1'
#850806
12
#850819
10
#850884
05
#850924
08
#851006
11
#853392
1:
1<
1>
#853795
0;
#854000
06
#854318
09
#856040
1/
1%
#856346
1.
1&
#857040
13
#860000
0!
0'
#860924
00
#861097
01
#862500
1$
1'
#863319
18
#866508
19
#870000
1!
0'
#870819
10
#871006
11
#873392
14
07
0<
#873979
0=
#875000
1#
0$
1'
#875779
15
#875924
08
#876363
0.
0&
#878659
16
#879318
09
#880000
0!
0'
#880924
00
#881097
01
#887500
1$
1'
#888319
18
#890000
1!
0'
#890819
10
#891006
11
#891508
19
#893392
17
0>
#893940
1;
#893942
1=
#896068
0/
0%
#900000
0"
0#
0$
0!
1'
#900884
05
#900913
02
#900924
00
08
#901097
01
#904000
06
#904318
09
#907637
03
#910000
1!
0'
#910819
10
#911006
11
#912500
1$
1'
#913319
18
#913392
04
07
0:
1<
1>
#914021
0=
#914222
0;
#916040
1/
1%
#916346
1.
1&
#916508
19
#920000
0!
0'
#920924
00
#921097
01
#925000
1#
0$
1'
#925779
15
#925924
08
#928659
16
#929318
09
#930000
1!
0'
#930819
10
#931006
11
#933392
17
0<
0>
#933940
1;
#933942
1=
#936068
0/
0%
#936363
0.
0&
#937500
1$
1'
#938319
18
#940000
0!
0'
#940924
00
#941097
01
#941508
19
#950000
1"
0#
0$
1!
1'
#950806
12
#950819
10
#950884
05
#950924
08
#951006
11
#953392
1:
1<
1>
#953795
0;
#954000
06
#954318
09
#956040
1/
1%
#956346
1.
1&
#957040
13
#960000
0!
0'
#960924
00
#961097
01
#962500
1$
1'
#963319
18
#966508
19
#970000
1!
0'
#970819
10
#971006
11
#973392
14
07
0<
#973979
0=
#975000
1#
0$
1'
#975779
15
#975924
08
#976363
0.
0&
#978659
16
#979318
09
#980000
0!
0'
#980924
00
#981097
01
#987500
1$
1'
#988319
18
#990000
1!
0'
#990819
10
#991006
11
#991508
19
#993392
17
0>
#993940
1;
#993942
1=
#996068
0/
0%
