Parte C/simulation/qsim/Parte_C.msim.vcd
$comment
	File created using the following command:
		vcd file Parte_C.msim.vcd -direction
$end
$date
	Thu Nov 07 12:27:43 2024
$end
$version
	ModelSim Version 10.1d
$end
$timescale
	1ps
$end
$scope module restador_4_bits_vlg_vec_tst $end
$var reg 1 ! A0 $end
$var reg 1 " A1 $end
$var reg 1 # A2 $end
$var reg 1 $ A3 $end
$var reg 1 % B0 $end
$var reg 1 & B1 $end
$var reg 1 ' B2 $end
$var reg 1 ( B3 $end
$var reg 1 ) Borrow_in $end
$var reg 1 * CLK $end
$var wire 1 + Borrow_out $end
$var wire 1 , D0 $end
$var wire 1 - D1 $end
$var wire 1 . D2 $end
$var wire 1 / D3 $end
$var wire 1 0 Zero $end
$var wire 1 1 sampler $end
$scope module i1 $end
$var wire 1 2 gnd $end
$var wire 1 3 vcc $end
$var wire 1 4 unknown $end
$var tri1 1 5 devclrn $end
$var tri1 1 6 devpor $end
$var tri1 1 7 devoe $end
$var wire 1 8 inst3|Q~q $end
$var wire 1 9 inst12|Q~q $end
$var wire 1 : Borrow_in~input_o $end
$var wire 1 ; A1~input_o $end
$var wire 1 < B3~input_o $end
$var wire 1 = D0~output_o $end
$var wire 1 > D1~output_o $end
$var wire 1 ? D2~output_o $end
$var wire 1 @ D3~output_o $end
$var wire 1 A Borrow_out~output_o $end
$var wire 1 B Zero~output_o $end
$var wire 1 C CLK~input_o $end
$var wire 1 D CLK~inputclkctrl_outclk $end
$var wire 1 E B0~input_o $end
$var wire 1 F inst2|Q~feeder_combout $end
$var wire 1 G inst2|Q~q $end
$var wire 1 H A0~input_o $end
$var wire 1 I inst1|Q~q $end
$var wire 1 J inst|D~0_combout $end
$var wire 1 K inst4|Q~q $end
$var wire 1 L B1~input_o $end
$var wire 1 M inst7|Q~feeder_combout $end
$var wire 1 N inst7|Q~q $end
$var wire 1 O inst|Borrow_out~0_combout $end
$var wire 1 P inst5|D~combout $end
$var wire 1 Q inst13|Q~q $end
$var wire 1 R B2~input_o $end
$var wire 1 S inst9|Q~feeder_combout $end
$var wire 1 T inst9|Q~q $end
$var wire 1 U inst6|D~0_combout $end
$var wire 1 V inst6|D~combout $end
$var wire 1 W inst14|Q~q $end
$var wire 1 X inst6|Borrow_out~0_combout $end
$var wire 1 Y A3~input_o $end
$var wire 1 Z inst11|Q~q $end
$var wire 1 [ A2~input_o $end
$var wire 1 \ inst8|Q~feeder_combout $end
$var wire 1 ] inst8|Q~q $end
$var wire 1 ^ inst6|Borrow_out~1_combout $end
$var wire 1 _ inst6|Borrow_out~2_combout $end
$var wire 1 ` inst10|D~combout $end
$var wire 1 a inst15|Q~q $end
$var wire 1 b inst10|Borrow_out~0_combout $end
$var wire 1 c inst16|Q~q $end
$var wire 1 d inst17~0_combout $end
$upscope $end
$upscope $end
$enddefinitions $end
#0
$dumpvars
1!
0"
0#
1$
0%
1&
1'
0(
0)
0*
x+
x,
x-
x.
x/
x0
x1
02
13
x4
15
16
17
08
09
0:
0;
0<
x=
x>
x?
x@
xA
xB
0C
xD
0E
xF
0G
1H
0I
xJ
0K
1L
xM
0N
xO
xP
0Q
1R
xS
0T
xU
xV
0W
xX
1Y
0Z
0[
x\
0]
x^
x_
x`
0a
xb
0c
xd
$end
#173
0D
#510
1^
#642
0U
0X
#1651
0d
#2738
0>
0-
#3042
0=
0,
#3043
0?
0.
#3046
0A
0+
#3064
0@
0/
#3388
1S
#3495
1M
#3596
0\
#3652
0F
#3738
0O
#3764
0J
#4127
0P
#4130
0V
0_
#4340
1B
10
#4511
0b
#4512
0`
#5000
1*
01
#5819
1C
#6006
1D
#8400
1I
1N
1T
1Z
#9005
1J
#9009
1U
1X
#9106
1_
#9123
1V
#9128
1`
#9147
1P
#9668
0V
#9701
0`
#10000
0!
0&
0*
11
#10893
0L
0H
#10924
0C
#11097
0D
#14606
0M
#15000
1*
01
#15819
1C
#16006
1D
#18400
0I
1K
0N
1Q
#19039
0J
#19120
1d
#19165
0_
#19217
1V
#19243
0P
#20000
1(
1!
1&
0*
11
#20766
1<
#20786
1L
1H
#20924
0C
#21097
0D
#21155
1>
1-
#21476
1=
1,
#21880
0B
00
#24281
1M
#25000
1*
01
#25819
1C
#26006
1D
#28400
19
1I
0K
1N
0Q
1W
#29005
1J
#29106
1_
#29114
0V
#29147
1P
#29590
1b
#29600
1`
#30000
0!
0&
0*
11
#30893
0L
0H
#30924
0C
#31097
0D
#31138
0>
0-
#31442
0=
0,
#31485
1?
1.
#34606
0M
#35000
1*
01
#35819
1C
#36006
1D
#38400
0I
1K
0N
1Q
0W
1a
1c
#39039
0J
#39165
0_
#39217
1V
#39243
0P
#40000
1"
0(
1!
1&
0*
11
#40756
1;
#40786
1L
1H
#40873
0<
#40924
0C
#41097
0D
#41155
1>
1-
#41443
0?
0.
#41476
1=
1,
#41497
1A
1+
#41518
1@
1/
#44281
1M
#45000
1*
01
#45819
1C
#46006
1D
#48400
18
09
1I
0K
1N
0Q
1W
#49005
1J
#49616
0b
#49647
0`
#50000
0!
0&
0*
11
#50893
0L
0H
#50924
0C
#51097
0D
#51138
0>
0-
#51442
0=
0,
#51485
1?
1.
#54606
0M
#55000
1*
01
#55819
1C
#56006
1D
#58400
0I
1K
0N
0a
0c
#59039
0J
#59241
1P
#60000
1(
1!
1&
0*
11
#60766
1<
#60786
1L
1H
#60924
0C
#61097
0D
#61446
0A
0+
#61464
0@
0/
#61476
1=
1,
#64281
1M
#65000
1*
01
#65819
1C
#66006
1D
#68400
19
1I
0K
1N
1Q
#69005
1J
#69149
0P
#69590
1b
#69600
1`
#70000
0!
0&
0*
11
#70893
0L
0H
#70924
0C
#71097
0D
#71155
1>
1-
#71442
0=
0,
#74606
0M
#75000
1*
01
#75819
1C
#76006
1D
#78400
0I
1K
0N
0Q
1a
1c
#79039
0J
#79241
1P
#80000
0"
0(
1!
1&
0*
11
#80786
1L
1H
#80863
0;
#80873
0<
#80924
0C
#81097
0D
#81138
0>
0-
#81476
1=
1,
#81497
1A
1+
#81518
1@
1/
#84281
1M
#85000
1*
01
#85819
1C
#86006
1D
#88400
08
09
1I
0K
1N
1Q
#89005
1J
#89218
1_
#89245
0V
#89616
0b
#89647
0`
#90000
0!
0&
0*
11
#90893
0L
0H
#90924
0C
#91097
0D
#91155
1>
1-
#91442
0=
0,
#94606
0M
#95000
1*
01
#95819
1C
#96006
1D
#98400
0I
1K
0N
0W
0a
0c
#99039
0J
#99165
0_
#99217
1V
#99243
0P
#100000
1(
1!
1&
0*
11
#100766
1<
#100786
1L
1H
#100924
0C
#101097
0D
#101443
0?
0.
#101446
0A
0+
#101464
0@
0/
#101476
1=
1,
#104281
1M
#105000
1*
01
#105819
1C
#106006
1D
#108400
19
1I
0K
1N
0Q
1W
#109005
1J
#109106
1_
#109114
0V
#109147
1P
#109590
1b
#109600
1`
#110000
0!
0&
0*
11
#110893
0L
0H
#110924
0C
#111097
0D
#111138
0>
0-
#111442
0=
0,
#111485
1?
1.
#114606
0M
#115000
1*
01
#115819
1C
#116006
1D
#118400
0I
1K
0N
1Q
0W
1a
1c
#119039
0J
#119165
0_
#119217
1V
#119243
0P
#120000
1"
0(
1!
1&
0*
11
#120756
1;
#120786
1L
1H
#120873
0<
#120924
0C
#121097
0D
#121155
1>
1-
#121443
0?
0.
#121476
1=
1,
#121497
1A
1+
#121518
1@
1/
#124281
1M
#125000
1*
01
#125819
1C
#126006
1D
#128400
18
09
1I
0K
1N
0Q
1W
#129005
1J
#129616
0b
#129647
0`
#130000
0!
0&
0*
11
#130893
0L
0H
#130924
0C
#131097
0D
#131138
0>
0-
#131442
0=
0,
#131485
1?
1.
#134606
0M
#135000
1*
01
#135819
1C
#136006
1D
#138400
0I
1K
0N
0a
0c
#139039
0J
#139241
1P
#140000
1(
1!
1&
0*
11
#140766
1<
#140786
1L
1H
#140924
0C
#141097
0D
#141446
0A
0+
#141464
0@
0/
#141476
1=
1,
#144281
1M
#145000
1*
01
#145819
1C
#146006
1D
#148400
19
1I
0K
1N
1Q
#149005
1J
#149149
0P
#149590
1b
#149600
1`
#150000
0!
0&
0*
11
#150893
0L
0H
#150924
0C
#151097
0D
#151155
1>
1-
#151442
0=
0,
#154606
0M
#155000
1*
01
#155819
1C
#156006
1D
#158400
0I
1K
0N
0Q
1a
1c
#159039
0J
#159241
1P
#160000
0"
0(
1!
1&
0*
11
#160786
1L
1H
#160863
0;
#160873
0<
#160924
0C
#161097
0D
#161138
0>
0-
#161476
1=
1,
#161497
1A
1+
#161518
1@
1/
#164281
1M
#165000
1*
01
#165819
1C
#166006
1D
#168400
08
09
1I
0K
1N
1Q
#169005
1J
#169218
1_
#169245
0V
#169616
0b
#169647
0`
#170000
0!
0&
0*
11
#170893
0L
0H
#170924
0C
#171097
0D
#171155
1>
1-
#171442
0=
0,
#174606
0M
#175000
1*
01
#175819
1C
#176006
1D
#178400
0I
1K
0N
0W
0a
0c
#179039
0J
#179165
0_
#179217
1V
#179243
0P
#180000
1(
1!
1&
0*
11
#180766
1<
#180786
1L
1H
#180924
0C
#181097
0D
#181443
0?
0.
#181446
0A
0+
#181464
0@
0/
#181476
1=
1,
#184281
1M
#185000
1*
01
#185819
1C
#186006
1D
#188400
19
1I
0K
1N
0Q
1W
#189005
1J
#189106
1_
#189114
0V
#189147
1P
#189590
1b
#189600
1`
#190000
0!
0&
0*
11
#190893
0L
0H
#190924
0C
#191097
0D
#191138
0>
0-
#191442
0=
0,
#191485
1?
1.
#194606
0M
#195000
1*
01
#195819
1C
#196006
1D
#198400
0I
1K
0N
1Q
0W
1a
1c
#199039
0J
#199165
0_
#199217
1V
#199243
0P
#200000
1"
0(
1!
1&
0*
11
#200756
1;
#200786
1L
1H
#200873
0<
#200924
0C
#201097
0D
#201155
1>
1-
#201443
0?
0.
#201476
1=
1,
#201497
1A
1+
#201518
1@
1/
#204281
1M
#205000
1*
01
#205819
1C
#206006
1D
#208400
18
09
1I
0K
1N
0Q
1W
#209005
1J
#209616
0b
#209647
0`
#210000
0!
0&
0*
11
#210893
0L
0H
#210924
0C
#211097
0D
#211138
0>
0-
#211442
0=
0,
#211485
1?
1.
#214606
0M
#215000
1*
01
#215819
1C
#216006
1D
#218400
0I
1K
0N
0a
0c
#219039
0J
#219241
1P
#220000
1(
1!
1&
0*
11
#220766
1<
#220786
1L
1H
#220924
0C
#221097
0D
#221446
0A
0+
#221464
0@
0/
#221476
1=
1,
#224281
1M
#225000
1*
01
#225819
1C
#226006
1D
#228400
19
1I
0K
1N
1Q
#229005
1J
#229149
0P
#229590
1b
#229600
1`
#230000
0!
0&
0*
11
#230893
0L
0H
#230924
0C
#231097
0D
#231155
1>
1-
#231442
0=
0,
#234606
0M
#235000
1*
01
#235819
1C
#236006
1D
#238400
0I
1K
0N
0Q
1a
1c
#239039
0J
#239241
1P
#240000
0"
0(
1!
1&
0*
11
#240786
1L
1H
#240863
0;
#240873
0<
#240924
0C
#241097
0D
#241138
0>
0-
#241476
1=
1,
#241497
1A
1+
#241518
1@
1/
#244281
1M
#245000
1*
01
#245819
1C
#246006
1D
#248400
08
09
1I
0K
1N
1Q
#249005
1J
#249218
1_
#249245
0V
#249616
0b
#249647
0`
#250000
0!
0&
0*
11
#250893
0L
0H
#250924
0C
#251097
0D
#251155
1>
1-
#251442
0=
0,
#254606
0M
#255000
1*
01
#255819
1C
#256006
1D
#258400
0I
1K
0N
0W
0a
0c
#259039
0J
#259165
0_
#259217
1V
#259243
0P
#260000
1(
1!
1&
0*
11
#260766
1<
#260786
1L
1H
#260924
0C
#261097
0D
#261443
0?
0.
#261446
0A
0+
#261464
0@
0/
#261476
1=
1,
#264281
1M
#265000
1*
01
#265819
1C
#266006
1D
#268400
19
1I
0K
1N
0Q
1W
#269005
1J
#269106
1_
#269114
0V
#269147
1P
#269590
1b
#269600
1`
#270000
0!
0&
0*
11
#270893
0L
0H
#270924
0C
#271097
0D
#271138
0>
0-
#271442
0=
0,
#271485
1?
1.
#274606
0M
#275000
1*
01
#275819
1C
#276006
1D
#278400
0I
1K
0N
1Q
0W
1a
1c
#279039
0J
#279165
0_
#279217
1V
#279243
0P
#280000
1"
0(
1!
1&
0*
11
#280756
1;
#280786
1L
1H
#280873
0<
#280924
0C
#281097
0D
#281155
1>
1-
#281443
0?
0.
#281476
1=
1,
#281497
1A
1+
#281518
1@
1/
#284281
1M
#285000
1*
01
#285819
1C
#286006
1D
#288400
18
09
1I
0K
1N
0Q
1W
#289005
1J
#289616
0b
#289647
0`
#290000
0!
0&
0*
11
#290893
0L
0H
#290924
0C
#291097
0D
#291138
0>
0-
#291442
0=
0,
#291485
1?
1.
#294606
0M
#295000
1*
01
#295819
1C
#296006
1D
#298400
0I
1K
0N
0a
0c
#299039
0J
#299241
1P
#300000
1(
1!
1&
0*
11
#300766
1<
#300786
1L
1H
#300924
0C
#301097
0D
#301446
0A
0+
#301464
0@
0/
#301476
1=
1,
#304281
1M
#305000
1*
01
#305819
1C
#306006
1D
#308400
19
1I
0K
1N
1Q
#309005
1J
#309149
0P
#309590
1b
#309600
1`
#310000
0!
0&
0*
11
#310893
0L
0H
#310924
0C
#311097
0D
#311155
1>
1-
#311442
0=
0,
#314606
0M
#315000
1*
01
#315819
1C
#316006
1D
#318400
0I
1K
0N
0Q
1a
1c
#319039
0J
#319241
1P
#320000
0"
0(
1!
1&
0*
11
#320786
1L
1H
#320863
0;
#320873
0<
#320924
0C
#321097
0D
#321138
0>
0-
#321476
1=
1,
#321497
1A
1+
#321518
1@
1/
#324281
1M
#325000
1*
01
#325819
1C
#326006
1D
#328400
08
09
1I
0K
1N
1Q
#329005
1J
#329218
1_
#329245
0V
#329616
0b
#329647
0`
#330000
0!
0&
0*
11
#330893
0L
0H
#330924
0C
#331097
0D
#331155
1>
1-
#331442
0=
0,
#334606
0M
#335000
1*
01
#335819
1C
#336006
1D
#338400
0I
1K
0N
0W
0a
0c
#339039
0J
#339165
0_
#339217
1V
#339243
0P
#340000
1(
1!
1&
0*
11
#340766
1<
#340786
1L
1H
#340924
0C
#341097
0D
#341443
0?
0.
#341446
0A
0+
#341464
0@
0/
#341476
1=
1,
#344281
1M
#345000
1*
01
#345819
1C
#346006
1D
#348400
19
1I
0K
1N
0Q
1W
#349005
1J
#349106
1_
#349114
0V
#349147
1P
#349590
1b
#349600
1`
#350000
0!
0&
0*
11
#350893
0L
0H
#350924
0C
#351097
0D
#351138
0>
0-
#351442
0=
0,
#351485
1?
1.
#354606
0M
#355000
1*
01
#355819
1C
#356006
1D
#358400
0I
1K
0N
1Q
0W
1a
1c
#359039
0J
#359165
0_
#359217
1V
#359243
0P
#360000
1"
0(
1!
1&
0*
11
#360756
1;
#360786
1L
1H
#360873
0<
#360924
0C
#361097
0D
#361155
1>
1-
#361443
0?
0.
#361476
1=
1,
#361497
1A
1+
#361518
1@
1/
#364281
1M
#365000
1*
01
#365819
1C
#366006
1D
#368400
18
09
1I
0K
1N
0Q
1W
#369005
1J
#369616
0b
#369647
0`
#370000
0!
0&
0*
11
#370893
0L
0H
#370924
0C
#371097
0D
#371138
0>
0-
#371442
0=
0,
#371485
1?
1.
#374606
0M
#375000
1*
01
#375819
1C
#376006
1D
#378400
0I
1K
0N
0a
0c
#379039
0J
#379241
1P
#380000
1(
1!
1&
0*
11
#380766
1<
#380786
1L
1H
#380924
0C
#381097
0D
#381446
0A
0+
#381464
0@
0/
#381476
1=
1,
#384281
1M
#385000
1*
01
#385819
1C
#386006
1D
#388400
19
1I
0K
1N
1Q
#389005
1J
#389149
0P
#389590
1b
#389600
1`
#390000
0!
0&
0*
11
#390893
0L
0H
#390924
0C
#391097
0D
#391155
1>
1-
#391442
0=
0,
#394606
0M
#395000
1*
01
#395819
1C
#396006
1D
#398400
0I
1K
0N
0Q
1a
1c
#399039
0J
#399241
1P
#400000
0"
0(
1!
1&
0*
11
#400786
1L
1H
#400863
0;
#400873
0<
#400924
0C
#401097
0D
#401138
0>
0-
#401476
1=
1,
#401497
1A
1+
#401518
1@
1/
#404281
1M
#405000
1*
01
#405819
1C
#406006
1D
#408400
08
09
1I
0K
1N
1Q
#409005
1J
#409218
1_
#409245
0V
#409616
0b
#409647
0`
#410000
0!
0&
0*
11
#410893
0L
0H
#410924
0C
#411097
0D
#411155
1>
1-
#411442
0=
0,
#414606
0M
#415000
1*
01
#415819
1C
#416006
1D
#418400
0I
1K
0N
0W
0a
0c
#419039
0J
#419165
0_
#419217
1V
#419243
0P
#420000
1(
1!
1&
0*
11
#420766
1<
#420786
1L
1H
#420924
0C
#421097
0D
#421443
0?
0.
#421446
0A
0+
#421464
0@
0/
#421476
1=
1,
#424281
1M
#425000
1*
01
#425819
1C
#426006
1D
#428400
19
1I
0K
1N
0Q
1W
#429005
1J
#429106
1_
#429114
0V
#429147
1P
#429590
1b
#429600
1`
#430000
0!
0&
0*
11
#430893
0L
0H
#430924
0C
#431097
0D
#431138
0>
0-
#431442
0=
0,
#431485
1?
1.
#434606
0M
#435000
1*
01
#435819
1C
#436006
1D
#438400
0I
1K
0N
1Q
0W
1a
1c
#439039
0J
#439165
0_
#439217
1V
#439243
0P
#440000
1"
0(
1!
1&
0*
11
#440756
1;
#440786
1L
1H
#440873
0<
#440924
0C
#441097
0D
#441155
1>
1-
#441443
0?
0.
#441476
1=
1,
#441497
1A
1+
#441518
1@
1/
#444281
1M
#445000
1*
01
#445819
1C
#446006
1D
#448400
18
09
1I
0K
1N
0Q
1W
#449005
1J
#449616
0b
#449647
0`
#450000
0!
0&
0*
11
#450893
0L
0H
#450924
0C
#451097
0D
#451138
0>
0-
#451442
0=
0,
#451485
1?
1.
#454606
0M
#455000
1*
01
#455819
1C
#456006
1D
#458400
0I
1K
0N
0a
0c
#459039
0J
#459241
1P
#460000
1(
1!
1&
0*
11
#460766
1<
#460786
1L
1H
#460924
0C
#461097
0D
#461446
0A
0+
#461464
0@
0/
#461476
1=
1,
#464281
1M
#465000
1*
01
#465819
1C
#466006
1D
#468400
19
1I
0K
1N
1Q
#469005
1J
#469149
0P
#469590
1b
#469600
1`
#470000
0!
0&
0*
11
#470893
0L
0H
#470924
0C
#471097
0D
#471155
1>
1-
#471442
0=
0,
#474606
0M
#475000
1*
01
#475819
1C
#476006
1D
#478400
0I
1K
0N
0Q
1a
1c
#479039
0J
#479241
1P
#480000
0"
0(
1!
1&
0*
11
#480786
1L
1H
#480863
0;
#480873
0<
#480924
0C
#481097
0D
#481138
0>
0-
#481476
1=
1,
#481497
1A
1+
#481518
1@
1/
#484281
1M
#485000
1*
01
#485819
1C
#486006
1D
#488400
08
09
1I
0K
1N
1Q
#489005
1J
#489218
1_
#489245
0V
#489616
0b
#489647
0`
#490000
0!
0&
0*
11
#490893
0L
0H
#490924
0C
#491097
0D
#491155
1>
1-
#491442
0=
0,
#494606
0M
#495000
1*
01
#495819
1C
#496006
1D
#498400
0I
1K
0N
0W
0a
0c
#499039
0J
#499165
0_
#499217
1V
#499243
0P
#500000
1(
1!
1&
0*
11
#500766
1<
#500786
1L
1H
#500924
0C
#501097
0D
#501443
0?
0.
#501446
0A
0+
#501464
0@
0/
#501476
1=
1,
#504281
1M
#505000
1*
01
#505819
1C
#506006
1D
#508400
19
1I
0K
1N
0Q
1W
#509005
1J
#509106
1_
#509114
0V
#509147
1P
#509590
1b
#509600
1`
#510000
0!
0&
0*
11
#510893
0L
0H
#510924
0C
#511097
0D
#511138
0>
0-
#511442
0=
0,
#511485
1?
1.
#514606
0M
#515000
1*
01
#515819
1C
#516006
1D
#518400
0I
1K
0N
1Q
0W
1a
1c
#519039
0J
#519165
0_
#519217
1V
#519243
0P
#520000
1"
0(
1!
1&
0*
11
#520756
1;
#520786
1L
1H
#520873
0<
#520924
0C
#521097
0D
#521155
1>
1-
#521443
0?
0.
#521476
1=
1,
#521497
1A
1+
#521518
1@
1/
#524281
1M
#525000
1*
01
#525819
1C
#526006
1D
#528400
18
09
1I
0K
1N
0Q
1W
#529005
1J
#529616
0b
#529647
0`
#530000
0!
0&
0*
11
#530893
0L
0H
#530924
0C
#531097
0D
#531138
0>
0-
#531442
0=
0,
#531485
1?
1.
#534606
0M
#535000
1*
01
#535819
1C
#536006
1D
#538400
0I
1K
0N
0a
0c
#539039
0J
#539241
1P
#540000
1(
1!
1&
0*
11
#540766
1<
#540786
1L
1H
#540924
0C
#541097
0D
#541446
0A
0+
#541464
0@
0/
#541476
1=
1,
#544281
1M
#545000
1*
01
#545819
1C
#546006
1D
#548400
19
1I
0K
1N
1Q
#549005
1J
#549149
0P
#549590
1b
#549600
1`
#550000
0!
0&
0*
11
#550893
0L
0H
#550924
0C
#551097
0D
#551155
1>
1-
#551442
0=
0,
#554606
0M
#555000
1*
01
#555819
1C
#556006
1D
#558400
0I
1K
0N
0Q
1a
1c
#559039
0J
#559241
1P
#560000
0"
0(
1!
1&
0*
11
#560786
1L
1H
#560863
0;
#560873
0<
#560924
0C
#561097
0D
#561138
0>
0-
#561476
1=
1,
#561497
1A
1+
#561518
1@
1/
#564281
1M
#565000
1*
01
#565819
1C
#566006
1D
#568400
08
09
1I
0K
1N
1Q
#569005
1J
#569218
1_
#569245
0V
#569616
0b
#569647
0`
#570000
0!
0&
0*
11
#570893
0L
0H
#570924
0C
#571097
0D
#571155
1>
1-
#571442
0=
0,
#574606
0M
#575000
1*
01
#575819
1C
#576006
1D
#578400
0I
1K
0N
0W
0a
0c
#579039
0J
#579165
0_
#579217
1V
#579243
0P
#580000
1(
1!
1&
0*
11
#580766
1<
#580786
1L
1H
#580924
0C
#581097
0D
#581443
0?
0.
#581446
0A
0+
#581464
0@
0/
#581476
1=
1,
#584281
1M
#585000
1*
01
#585819
1C
#586006
1D
#588400
19
1I
0K
1N
0Q
1W
#589005
1J
#589106
1_
#589114
0V
#589147
1P
#589590
1b
#589600
1`
#590000
0!
0&
0*
11
#590893
0L
0H
#590924
0C
#591097
0D
#591138
0>
0-
#591442
0=
0,
#591485
1?
1.
#594606
0M
#595000
1*
01
#595819
1C
#596006
1D
#598400
0I
1K
0N
1Q
0W
1a
1c
#599039
0J
#599165
0_
#599217
1V
#599243
0P
#600000
1"
0(
1!
1&
0*
11
#600756
1;
#600786
1L
1H
#600873
0<
#600924
0C
#601097
0D
#601155
1>
1-
#601443
0?
0.
#601476
1=
1,
#601497
1A
1+
#601518
1@
1/
#604281
1M
#605000
1*
01
#605819
1C
#606006
1D
#608400
18
09
1I
0K
1N
0Q
1W
#609005
1J
#609616
0b
#609647
0`
#610000
0!
0&
0*
11
#610893
0L
0H
#610924
0C
#611097
0D
#611138
0>
0-
#611442
0=
0,
#611485
1?
1.
#614606
0M
#615000
1*
01
#615819
1C
#616006
1D
#618400
0I
1K
0N
0a
0c
#619039
0J
#619241
1P
#620000
1(
1!
1&
0*
11
#620766
1<
#620786
1L
1H
#620924
0C
#621097
0D
#621446
0A
0+
#621464
0@
0/
#621476
1=
1,
#624281
1M
#625000
1*
01
#625819
1C
#626006
1D
#628400
19
1I
0K
1N
1Q
#629005
1J
#629149
0P
#629590
1b
#629600
1`
#630000
0!
0&
0*
11
#630893
0L
0H
#630924
0C
#631097
0D
#631155
1>
1-
#631442
0=
0,
#634606
0M
#635000
1*
01
#635819
1C
#636006
1D
#638400
0I
1K
0N
0Q
1a
1c
#639039
0J
#639241
1P
#640000
0"
0(
1!
1&
0*
11
#640786
1L
1H
#640863
0;
#640873
0<
#640924
0C
#641097
0D
#641138
0>
0-
#641476
1=
1,
#641497
1A
1+
#641518
1@
1/
#644281
1M
#645000
1*
01
#645819
1C
#646006
1D
#648400
08
09
1I
0K
1N
1Q
#649005
1J
#649218
1_
#649245
0V
#649616
0b
#649647
0`
#650000
0!
0&
0*
11
#650893
0L
0H
#650924
0C
#651097
0D
#651155
1>
1-
#651442
0=
0,
#654606
0M
#655000
1*
01
#655819
1C
#656006
1D
#658400
0I
1K
0N
0W
0a
0c
#659039
0J
#659165
0_
#659217
1V
#659243
0P
#660000
1(
1!
1&
0*
11
#660766
1<
#660786
1L
1H
#660924
0C
#661097
0D
#661443
0?
0.
#661446
0A
0+
#661464
0@
0/
#661476
1=
1,
#664281
1M
#665000
1*
01
#665819
1C
#666006
1D
#668400
19
1I
0K
1N
0Q
1W
#669005
1J
#669106
1_
#669114
0V
#669147
1P
#669590
1b
#669600
1`
#670000
0!
0&
0*
11
#670893
0L
0H
#670924
0C
#671097
0D
#671138
0>
0-
#671442
0=
0,
#671485
1?
1.
#674606
0M
#675000
1*
01
#675819
1C
#676006
1D
#678400
0I
1K
0N
1Q
0W
1a
1c
#679039
0J
#679165
0_
#679217
1V
#679243
0P
#680000
1"
0(
1!
1&
0*
11
#680756
1;
#680786
1L
1H
#680873
0<
#680924
0C
#681097
0D
#681155
1>
1-
#681443
0?
0.
#681476
1=
1,
#681497
1A
1+
#681518
1@
1/
#684281
1M
#685000
1*
01
#685819
1C
#686006
1D
#688400
18
09
1I
0K
1N
0Q
1W
#689005
1J
#689616
0b
#689647
0`
#690000
0!
0&
0*
11
#690893
0L
0H
#690924
0C
#691097
0D
#691138
0>
0-
#691442
0=
0,
#691485
1?
1.
#694606
0M
#695000
1*
01
#695819
1C
#696006
1D
#698400
0I
1K
0N
0a
0c
#699039
0J
#699241
1P
#700000
1(
1!
1&
0*
11
#700766
1<
#700786
1L
1H
#700924
0C
#701097
0D
#701446
0A
0+
#701464
0@
0/
#701476
1=
1,
#704281
1M
#705000
1*
01
#705819
1C
#706006
1D
#708400
19
1I
0K
1N
1Q
#709005
1J
#709149
0P
#709590
1b
#709600
1`
#710000
0!
0&
0*
11
#710893
0L
0H
#710924
0C
#711097
0D
#711155
1>
1-
#711442
0=
0,
#714606
0M
#715000
1*
01
#715819
1C
#716006
1D
#718400
0I
1K
0N
0Q
1a
1c
#719039
0J
#719241
1P
#720000
0"
0(
1!
1&
0*
11
#720786
1L
1H
#720863
0;
#720873
0<
#720924
0C
#721097
0D
#721138
0>
0-
#721476
1=
1,
#721497
1A
1+
#721518
1@
1/
#724281
1M
#725000
1*
01
#725819
1C
#726006
1D
#728400
08
09
1I
0K
1N
1Q
#729005
1J
#729218
1_
#729245
0V
#729616
0b
#729647
0`
#730000
0!
0&
0*
11
#730893
0L
0H
#730924
0C
#731097
0D
#731155
1>
1-
#731442
0=
0,
#734606
0M
#735000
1*
01
#735819
1C
#736006
1D
#738400
0I
1K
0N
0W
0a
0c
#739039
0J
#739165
0_
#739217
1V
#739243
0P
#740000
1(
1!
1&
0*
11
#740766
1<
#740786
1L
1H
#740924
0C
#741097
0D
#741443
0?
0.
#741446
0A
0+
#741464
0@
0/
#741476
1=
1,
#744281
1M
#745000
1*
01
#745819
1C
#746006
1D
#748400
19
1I
0K
1N
0Q
1W
#749005
1J
#749106
1_
#749114
0V
#749147
1P
#749590
1b
#749600
1`
#750000
0!
0&
0*
11
#750893
0L
0H
#750924
0C
#751097
0D
#751138
0>
0-
#751442
0=
0,
#751485
1?
1.
#754606
0M
#755000
1*
01
#755819
1C
#756006
1D
#758400
0I
1K
0N
1Q
0W
1a
1c
#759039
0J
#759165
0_
#759217
1V
#759243
0P
#760000
1"
0(
1!
1&
0*
11
#760756
1;
#760786
1L
1H
#760873
0<
#760924
0C
#761097
0D
#761155
1>
1-
#761443
0?
0.
#761476
1=
1,
#761497
1A
1+
#761518
1@
1/
#764281
1M
#765000
1*
01
#765819
1C
#766006
1D
#768400
18
09
1I
0K
1N
0Q
1W
#769005
1J
#769616
0b
#769647
0`
#770000
0!
0&
0*
11
#770893
0L
0H
#770924
0C
#771097
0D
#771138
0>
0-
#771442
0=
0,
#771485
1?
1.
#774606
0M
#775000
1*
01
#775819
1C
#776006
1D
#778400
0I
1K
0N
0a
0c
#779039
0J
#779241
1P
#780000
1(
1!
1&
0*
11
#780766
1<
#780786
1L
1H
#780924
0C
#781097
0D
#781446
0A
0+
#781464
0@
0/
#781476
1=
1,
#784281
1M
#785000
1*
01
#785819
1C
#786006
1D
#788400
19
1I
0K
1N
1Q
#789005
1J
#789149
0P
#789590
1b
#789600
1`
#790000
0!
0&
0*
11
#790893
0L
0H
#790924
0C
#791097
0D
#791155
1>
1-
#791442
0=
0,
#794606
0M
#795000
1*
01
#795819
1C
#796006
1D
#798400
0I
1K
0N
0Q
1a
1c
#799039
0J
#799241
1P
#800000
0"
0(
1!
1&
0*
11
#800786
1L
1H
#800863
0;
#800873
0<
#800924
0C
#801097
0D
#801138
0>
0-
#801476
1=
1,
#801497
1A
1+
#801518
1@
1/
#804281
1M
#805000
1*
01
#805819
1C
#806006
1D
#808400
08
09
1I
0K
1N
1Q
#809005
1J
#809218
1_
#809245
0V
#809616
0b
#809647
0`
#810000
0!
0&
0*
11
#810893
0L
0H
#810924
0C
#811097
0D
#811155
1>
1-
#811442
0=
0,
#814606
0M
#815000
1*
01
#815819
1C
#816006
1D
#818400
0I
1K
0N
0W
0a
0c
#819039
0J
#819165
0_
#819217
1V
#819243
0P
#820000
1(
1!
1&
0*
11
#820766
1<
#820786
1L
1H
#820924
0C
#821097
0D
#821443
0?
0.
#821446
0A
0+
#821464
0@
0/
#821476
1=
1,
#824281
1M
#825000
1*
01
#825819
1C
#826006
1D
#828400
19
1I
0K
1N
0Q
1W
#829005
1J
#829106
1_
#829114
0V
#829147
1P
#829590
1b
#829600
1`
#830000
0!
0&
0*
11
#830893
0L
0H
#830924
0C
#831097
0D
#831138
0>
0-
#831442
0=
0,
#831485
1?
1.
#834606
0M
#835000
1*
01
#835819
1C
#836006
1D
#838400
0I
1K
0N
1Q
0W
1a
1c
#839039
0J
#839165
0_
#839217
1V
#839243
0P
#840000
1"
0(
1!
1&
0*
11
#840756
1;
#840786
1L
1H
#840873
0<
#840924
0C
#841097
0D
