Parte C/simulation/qsim/Parte_C.msim.vcd
$comment
	File created using the following command:
		vcd file Parte_C.msim.vcd -direction
$end
$date
	Thu Nov 07 04:44:16 2024
$end
$version
	ModelSim Version 10.1d
$end
$timescale
	1ps
$end
$scope module restador_4_bits_vlg_vec_tst $end
$var reg 1 ! A0 $end
$var reg 1 " A1 $end
$var reg 1 # A2 $end
$var reg 1 $ A3 $end
$var reg 1 % B0 $end
$var reg 1 & B1 $end
$var reg 1 ' B2 $end
$var reg 1 ( B3 $end
$var reg 1 ) Borrow_in $end
$var reg 1 * CLK $end
$var wire 1 + Borrow_out $end
$var wire 1 , D0 $end
$var wire 1 - D1 $end
$var wire 1 . D2 $end
$var wire 1 / D3 $end
$var wire 1 0 Zero $end
$var wire 1 1 sampler $end
$scope module i1 $end
$var wire 1 2 gnd $end
$var wire 1 3 vcc $end
$var wire 1 4 unknown $end
$var tri1 1 5 devclrn $end
$var tri1 1 6 devpor $end
$var tri1 1 7 devoe $end
$var wire 1 8 inst3|Q~q $end
$var wire 1 9 inst12|Q~q $end
$var wire 1 : Borrow_in~input_o $end
$var wire 1 ; A1~input_o $end
$var wire 1 < B3~input_o $end
$var wire 1 = D0~output_o $end
$var wire 1 > D1~output_o $end
$var wire 1 ? D2~output_o $end
$var wire 1 @ D3~output_o $end
$var wire 1 A Borrow_out~output_o $end
$var wire 1 B Zero~output_o $end
$var wire 1 C CLK~input_o $end
$var wire 1 D CLK~inputclkctrl_outclk $end
$var wire 1 E B0~input_o $end
$var wire 1 F inst2|Q~feeder_combout $end
$var wire 1 G inst2|Q~q $end
$var wire 1 H A0~input_o $end
$var wire 1 I inst1|Q~q $end
$var wire 1 J inst|D~0_combout $end
$var wire 1 K inst4|Q~q $end
$var wire 1 L B1~input_o $end
$var wire 1 M inst7|Q~feeder_combout $end
$var wire 1 N inst7|Q~q $end
$var wire 1 O inst|Borrow_out~0_combout $end
$var wire 1 P inst5|D~combout $end
$var wire 1 Q inst13|Q~q $end
$var wire 1 R B2~input_o $end
$var wire 1 S inst9|Q~feeder_combout $end
$var wire 1 T inst9|Q~q $end
$var wire 1 U inst6|D~0_combout $end
$var wire 1 V inst6|D~combout $end
$var wire 1 W inst14|Q~q $end
$var wire 1 X inst6|Borrow_out~0_combout $end
$var wire 1 Y A3~input_o $end
$var wire 1 Z inst11|Q~q $end
$var wire 1 [ A2~input_o $end
$var wire 1 \ inst8|Q~feeder_combout $end
$var wire 1 ] inst8|Q~q $end
$var wire 1 ^ inst6|Borrow_out~1_combout $end
$var wire 1 _ inst6|Borrow_out~2_combout $end
$var wire 1 ` inst10|D~combout $end
$var wire 1 a inst15|Q~q $end
$var wire 1 b inst10|Borrow_out~0_combout $end
$var wire 1 c inst16|Q~q $end
$var wire 1 d inst17~0_combout $end
$upscope $end
$upscope $end
$enddefinitions $end
#0
$dumpvars
1!
0"
0#
1$
0%
1&
1'
0(
0)
0*
x+
x,
x-
x.
x/
x0
x1
02
13
x4
15
16
17
08
09
0:
0;
0<
x=
x>
x?
x@
xA
xB
0C
xD
0E
xF
0G
1H
0I
xJ
0K
1L
xM
0N
xO
xP
0Q
1R
xS
0T
xU
xV
0W
xX
1Y
0Z
0[
x\
0]
x^
x_
x`
0a
xb
0c
xd
$end
#173
0D
#510
1^
#642
0U
0X
#1651
0d
#2738
0>
0-
#3042
0=
0,
#3043
0?
0.
#3046
0A
0+
#3064
0@
0/
#3388
1S
#3495
1M
#3596
0\
#3652
0F
#3738
0O
#3764
0J
#4127
0P
#4130
0V
0_
#4340
1B
10
#4511
0b
#4512
0`
#5000
1*
01
#5819
1C
#6006
1D
#8400
1I
1N
1T
1Z
#9005
1J
#9009
1U
1X
#9106
1_
#9123
1V
#9128
1`
#9147
1P
#9668
0V
#9701
0`
#10000
0*
11
#10924
0C
#11097
0D
#15000
1*
01
#15819
1C
#16006
1D
#18400
1K
1Q
#19120
1d
#20000
0*
11
#20924
0C
#21097
0D
#21155
1>
1-
#21476
1=
1,
#21880
0B
00
#25000
1*
01
#25819
1C
#26006
1D
#30000
0*
11
#30924
0C
#31097
0D
#35000
1*
01
#35819
1C
#36006
1D
#40000
0*
11
#40924
0C
#41097
0D
#45000
1*
01
#45819
1C
#46006
1D
#50000
0*
11
#50924
0C
#51097
0D
#55000
1*
01
#55819
1C
#56006
1D
#60000
0*
11
#60924
0C
#61097
0D
#65000
1*
01
#65819
1C
#66006
1D
#70000
0*
11
#70924
0C
#71097
0D
#75000
1*
01
#75819
1C
#76006
1D
#80000
0*
11
#80924
0C
#81097
0D
#85000
1*
01
#85819
1C
#86006
1D
#90000
0*
11
#90924
0C
#91097
0D
#95000
1*
01
#95819
1C
#96006
1D
#100000
0*
11
#100924
0C
#101097
0D
#105000
1*
01
#105819
1C
#106006
1D
#110000
0*
11
#110924
0C
#111097
0D
#115000
1*
01
#115819
1C
#116006
1D
#120000
0*
11
#120924
0C
#121097
0D
#125000
1*
01
#125819
1C
#126006
1D
#130000
0*
11
#130924
0C
#131097
0D
#135000
1*
01
#135819
1C
#136006
1D
#140000
0*
11
#140924
0C
#141097
0D
#145000
1*
01
#145819
1C
#146006
1D
#150000
0*
11
#150924
0C
#151097
0D
#155000
1*
01
#155819
1C
#156006
1D
#160000
0*
11
#160924
0C
#161097
0D
#165000
1*
01
#165819
1C
#166006
1D
#170000
0*
11
#170924
0C
#171097
0D
#175000
1*
01
#175819
1C
#176006
1D
#180000
0*
11
#180924
0C
#181097
0D
#185000
1*
01
#185819
1C
#186006
1D
#190000
0*
11
#190924
0C
#191097
0D
#195000
1*
01
#195819
1C
#196006
1D
#200000
0*
11
#200924
0C
#201097
0D
#205000
1*
01
#205819
1C
#206006
1D
#210000
0*
11
#210924
0C
#211097
0D
#215000
1*
01
#215819
1C
#216006
1D
#220000
0*
11
#220924
0C
#221097
0D
#225000
1*
01
#225819
1C
#226006
1D
#230000
0*
11
#230924
0C
#231097
0D
#235000
1*
01
#235819
1C
#236006
1D
#240000
0*
11
#240924
0C
#241097
0D
#245000
1*
01
#245819
1C
#246006
1D
#250000
0*
11
#250924
0C
#251097
0D
#255000
1*
01
#255819
1C
#256006
1D
#260000
0*
11
#260924
0C
#261097
0D
#265000
1*
01
#265819
1C
#266006
1D
#270000
0*
11
#270924
0C
#271097
0D
#275000
1*
01
#275819
1C
#276006
1D
#280000
0*
11
#280924
0C
#281097
0D
#285000
1*
01
#285819
1C
#286006
1D
#290000
0*
11
#290924
0C
#291097
0D
#295000
1*
01
#295819
1C
#296006
1D
#300000
0*
11
#300924
0C
#301097
0D
#305000
1*
01
#305819
1C
#306006
1D
#310000
0*
11
#310924
0C
#311097
0D
#315000
1*
01
#315819
1C
#316006
1D
#320000
0*
11
#320924
0C
#321097
0D
#325000
1*
01
#325819
1C
#326006
1D
#330000
0*
11
#330924
0C
#331097
0D
#335000
1*
01
#335819
1C
#336006
1D
#340000
0*
11
#340924
0C
#341097
0D
#345000
1*
01
#345819
1C
#346006
1D
#350000
0*
11
#350924
0C
#351097
0D
#355000
1*
01
#355819
1C
#356006
1D
#360000
0*
11
#360924
0C
#361097
0D
#365000
1*
01
#365819
1C
#366006
1D
#370000
0*
11
#370924
0C
#371097
0D
#375000
1*
01
#375819
1C
#376006
1D
#380000
0*
11
#380924
0C
#381097
0D
#385000
1*
01
#385819
1C
#386006
1D
#390000
0*
11
#390924
0C
#391097
0D
#395000
1*
01
#395819
1C
#396006
1D
#400000
0*
11
#400924
0C
#401097
0D
#405000
1*
01
#405819
1C
#406006
1D
#410000
0*
11
#410924
0C
#411097
0D
#415000
1*
01
#415819
1C
#416006
1D
#420000
0*
11
#420924
0C
#421097
0D
#425000
1*
01
#425819
1C
#426006
1D
#430000
0*
11
#430924
0C
#431097
0D
#435000
1*
01
#435819
1C
#436006
1D
#440000
0*
11
#440924
0C
#441097
0D
#445000
1*
01
#445819
1C
#446006
1D
#450000
0*
11
#450924
0C
#451097
0D
#455000
1*
01
#455819
1C
#456006
1D
#460000
0*
11
#460924
0C
#461097
0D
#465000
1*
01
#465819
1C
#466006
1D
#470000
0*
11
#470924
0C
#471097
0D
#475000
1*
01
#475819
1C
#476006
1D
#480000
0*
11
#480924
0C
#481097
0D
#485000
1*
01
#485819
1C
#486006
1D
#490000
0*
11
#490924
0C
#491097
0D
#495000
1*
01
#495819
1C
#496006
1D
#500000
0*
11
#500924
0C
#501097
0D
#505000
1*
01
#505819
1C
#506006
1D
#510000
0*
11
#510924
0C
#511097
0D
#515000
1*
01
#515819
1C
#516006
1D
#520000
0*
11
#520924
0C
#521097
0D
#525000
1*
01
#525819
1C
#526006
1D
#530000
0*
11
#530924
0C
#531097
0D
#535000
1*
01
#535819
1C
#536006
1D
#540000
0*
11
#540924
0C
#541097
0D
#545000
1*
01
#545819
1C
#546006
1D
#550000
0*
11
#550924
0C
#551097
0D
#555000
1*
01
#555819
1C
#556006
1D
#560000
0*
11
#560924
0C
#561097
0D
#565000
1*
01
#565819
1C
#566006
1D
#570000
0*
11
#570924
0C
#571097
0D
#575000
1*
01
#575819
1C
#576006
1D
#580000
0*
11
#580924
0C
#581097
0D
#585000
1*
01
#585819
1C
#586006
1D
#590000
0*
11
#590924
0C
#591097
0D
#595000
1*
01
#595819
1C
#596006
1D
#600000
0*
11
#600924
0C
#601097
0D
#605000
1*
01
#605819
1C
#606006
1D
#610000
0*
11
#610924
0C
#611097
0D
#615000
1*
01
#615819
1C
#616006
1D
#620000
0*
11
#620924
0C
#621097
0D
#625000
1*
01
#625819
1C
#626006
1D
#630000
0*
11
#630924
0C
#631097
0D
#635000
1*
01
#635819
1C
#636006
1D
#640000
0*
11
#640924
0C
#641097
0D
#645000
1*
01
#645819
1C
#646006
1D
#650000
0*
11
#650924
0C
#651097
0D
#655000
1*
01
#655819
1C
#656006
1D
#660000
0*
11
#660924
0C
#661097
0D
#665000
1*
01
#665819
1C
#666006
1D
#670000
0*
11
#670924
0C
#671097
0D
#675000
1*
01
#675819
1C
#676006
1D
#680000
0*
11
#680924
0C
#681097
0D
#685000
1*
01
#685819
1C
#686006
1D
#690000
0*
11
#690924
0C
#691097
0D
#695000
1*
01
#695819
1C
#696006
1D
#700000
0*
11
#700924
0C
#701097
0D
#705000
1*
01
#705819
1C
#706006
1D
#710000
0*
11
#710924
0C
#711097
0D
#715000
1*
01
#715819
1C
#716006
1D
#720000
0*
11
#720924
0C
#721097
0D
#725000
1*
01
#725819
1C
#726006
1D
#730000
0*
11
#730924
0C
#731097
0D
#735000
1*
01
#735819
1C
#736006
1D
#740000
0*
11
#740924
0C
#741097
0D
#745000
1*
01
#745819
1C
#746006
1D
#750000
0*
11
#750924
0C
#751097
0D
#755000
1*
01
#755819
1C
#756006
1D
#760000
0*
11
#760924
0C
#761097
0D
#765000
1*
01
#765819
1C
#766006
1D
#770000
0*
11
#770924
0C
#771097
0D
#775000
1*
01
#775819
1C
#776006
1D
#780000
0*
11
#780924
0C
#781097
0D
#785000
1*
01
#785819
1C
#786006
1D
#790000
0*
11
#790924
0C
#791097
0D
#795000
1*
01
#795819
1C
#796006
1D
#800000
0*
11
#800924
0C
#801097
0D
#805000
1*
01
#805819
1C
#806006
1D
#810000
0*
11
#810924
0C
#811097
0D
#815000
1*
01
#815819
1C
#816006
1D
#820000
0*
11
#820924
0C
#821097
0D
#825000
1*
01
#825819
1C
#826006
1D
#830000
0*
11
#830924
0C
#831097
0D
#835000
1*
01
#835819
1C
#836006
1D
#840000
0*
11
#840924
0C
#841097
0D
#845000
1*
01
#845819
1C
#846006
1D
#850000
0*
11
#850924
0C
#851097
0D
#855000
1*
01
#855819
1C
#856006
1D
#860000
0*
11
#860924
0C
#861097
0D
#865000
1*
01
#865819
1C
#866006
1D
#870000
0*
11
#870924
0C
#871097
0D
#875000
1*
01
#875819
1C
#876006
1D
#880000
0*
11
#880924
0C
#881097
0D
#885000
1*
01
#885819
1C
#886006
1D
#890000
0*
11
#890924
0C
#891097
0D
#895000
1*
01
#895819
1C
#896006
1D
#900000
0*
11
#900924
0C
#901097
0D
#905000
1*
01
#905819
1C
#906006
1D
#910000
0*
11
#910924
0C
#911097
0D
#915000
1*
01
#915819
1C
#916006
1D
#920000
0*
11
#920924
0C
#921097
0D
#925000
1*
01
#925819
1C
#926006
1D
#930000
0*
11
#930924
0C
#931097
0D
#935000
1*
01
#935819
1C
#936006
1D
#940000
0*
11
#940924
0C
#941097
0D
#945000
1*
01
#945819
1C
#946006
1D
#950000
0*
11
#950924
0C
#951097
0D
#955000
1*
01
#955819
1C
#956006
1D
#960000
0*
11
#960924
0C
#961097
0D
#965000
1*
01
#965819
1C
#966006
1D
#970000
0*
11
#970924
0C
#971097
0D
#975000
1*
01
#975819
1C
#976006
1D
#980000
0*
11
#980924
0C
#981097
0D
#985000
1*
01
#985819
1C
#986006
1D
#990000
0*
11
#990924
0C
#991097
0D
#995000
1*
01
#995819
1C
