Parte D/simulation/qsim/Parte_D.msim.vcd
$comment
	File created using the following command:
		vcd file Parte_D.msim.vcd -direction
$end
$date
	Thu Nov 07 03:03:30 2024
$end
$version
	ModelSim Version 10.1d
$end
$timescale
	1ps
$end
$scope module Parte_D_vlg_vec_tst $end
$var reg 1 ! clock $end
$var reg 1 " reset $end
$var reg 1 # x $end
$var wire 1 $ Z1 $end
$var wire 1 % Z2 $end
$var wire 1 & Z3 $end
$var wire 1 ' Z4 $end
$var wire 1 ( sampler $end
$scope module i1 $end
$var wire 1 ) gnd $end
$var wire 1 * vcc $end
$var wire 1 + unknown $end
$var tri1 1 , devclrn $end
$var tri1 1 - devpor $end
$var tri1 1 . devoe $end
$var wire 1 / clock~input_o $end
$var wire 1 0 clock~inputclkctrl_outclk $end
$var wire 1 1 Z4~output_o $end
$var wire 1 2 Z3~output_o $end
$var wire 1 3 Z2~output_o $end
$var wire 1 4 Z1~output_o $end
$var wire 1 5 reset~input_o $end
$var wire 1 6 x~input_o $end
$var wire 1 7 fstate.state_bit_1~0_combout $end
$var wire 1 8 fstate.state_bit_1~1_combout $end
$var wire 1 9 fstate.state_bit_1~q $end
$var wire 1 : fstate.state_bit_0~0_combout $end
$var wire 1 ; fstate.state_bit_0~1_combout $end
$var wire 1 < fstate.state_bit_0~q $end
$var wire 1 = fstate.state_bit_2~0_combout $end
$var wire 1 > fstate.state_bit_2~1_combout $end
$var wire 1 ? fstate.state_bit_2~q $end
$var wire 1 @ Z4~0_combout $end
$var wire 1 A Z3~0_combout $end
$var wire 1 B Z2~0_combout $end
$var wire 1 C Z1~0_combout $end
$upscope $end
$upscope $end
$enddefinitions $end
#0
$dumpvars
0!
0"
0#
x$
x%
x&
x'
x(
0)
1*
x+
1,
1-
1.
0/
x0
x1
x2
x3
x4
05
06
x7
x8
09
x:
x;
0<
x=
x>
0?
x@
xA
xB
xC
$end
#173
00
#1009
0A
0C
#1011
0B
#1208
1@
#3514
07
#3576
04
0$
#3718
03
0%
#3794
01
0'
#3795
1:
#3818
1=
#3888
02
0&
#3898
18
#4139
0;
#4177
1>
#10000
1#
0(
#10769
16
#14323
08
#14341
0:
#14349
0=
#14716
0>
#14724
1;
#20000
1!
0#
1(
#20819
1/
#20874
06
#21006
10
#23397
1<
#23986
18
#24585
0@
#27152
11
1'
#30000
1#
0(
#30769
16
#40000
0!
0#
1(
#40874
06
#40924
0/
#41097
00
#50000
1#
0(
#50769
16
#60000
1!
0#
1(
#60819
1/
#60874
06
#61006
10
#63397
19
#64316
0;
#64387
1A
#67308
12
1&
#70000
1#
0(
#70769
16
#80000
0!
0#
1(
#80874
06
#80924
0/
#81097
00
#90000
1#
0(
#90769
16
#100000
1!
0#
1(
#100819
1/
#100874
06
#101006
10
#103397
0<
#103806
1;
#104075
1=
08
#104434
1>
#104559
1C
#104606
1B
#104643
18
#107145
14
1$
#107355
13
1%
#110000
1#
0(
#110769
16
#114323
08
#120000
0!
0#
1(
#120874
06
#120924
0/
#121097
00
#124643
18
#130000
1#
0(
#130769
16
#134323
08
#140000
1!
0#
1(
#140819
1/
#140874
06
#141006
10
#143397
09
1<
1?
#143826
0;
#143979
0=
#143986
18
#144133
17
#144325
0C
#144346
0>
#144477
08
#144586
0B
#146892
04
0$
#147293
03
0%
#150000
1#
0(
#150769
16
#160000
0!
0#
1(
#160874
06
#160924
0/
#161097
00
#170000
1#
0(
#170769
16
#180000
1!
0#
1(
#180819
1/
#180874
06
#181006
10
#183397
0<
0?
#184208
07
#184438
1;
#184441
0A
#184592
18
#184605
1@
#184669
1:
#184692
1=
#185013
0;
#185051
1>
#187191
01
0'
#187320
02
0&
#190000
1#
0(
#190769
16
#194323
08
#194341
0:
#194349
0=
#194716
0>
#194724
1;
#200000
0!
0#
1(
#200874
06
#200924
0/
#201097
00
#204643
18
#204669
1:
#204692
1=
#205013
0;
#205051
1>
#210000
1#
0(
#210769
16
#214323
08
#214341
0:
#214349
0=
#214716
0>
#214724
1;
#220000
1!
0#
1(
#220819
1/
#220874
06
#221006
10
#223397
1<
#223986
18
#224585
0@
#227152
11
1'
#230000
1#
0(
#230769
16
#240000
0!
0#
1(
#240874
06
#240924
0/
#241097
00
#250000
1#
0(
#250769
16
#260000
1!
0#
1(
#260819
1/
#260874
06
#261006
10
#263397
19
#264316
0;
#264387
1A
#267308
12
1&
#270000
1#
0(
#270769
16
#280000
0!
0#
1(
#280874
06
#280924
0/
#281097
00
#290000
1#
0(
#290769
16
#300000
1!
0#
1(
#300819
1/
#300874
06
#301006
10
#303397
0<
#303806
1;
#304075
1=
08
#304434
1>
#304559
1C
#304606
1B
#304643
18
#307145
14
1$
#307355
13
1%
#310000
1#
0(
#310769
16
#314323
08
#320000
0!
0#
1(
#320874
06
#320924
0/
#321097
00
#324643
18
#330000
1#
0(
#330769
16
#334323
08
#340000
1!
0#
1(
#340819
1/
#340874
06
#341006
10
#343397
09
1<
1?
#343826
0;
#343979
0=
#343986
18
#344133
17
#344325
0C
#344346
0>
#344477
08
#344586
0B
#346892
04
0$
#347293
03
0%
#350000
1#
0(
#350769
16
#360000
0!
0#
1(
#360874
06
#360924
0/
#361097
00
#370000
1#
0(
#370769
16
#380000
1!
0#
1(
#380819
1/
#380874
06
#381006
10
#383397
0<
0?
#384208
07
#384438
1;
#384441
0A
#384592
18
#384605
1@
#384669
1:
#384692
1=
#385013
0;
#385051
1>
#387191
01
0'
#387320
02
0&
#390000
1#
0(
#390769
16
#394323
08
#394341
0:
#394349
0=
#394716
0>
#394724
1;
#400000
0!
0#
1(
#400874
06
#400924
0/
#401097
00
#404643
18
#404669
1:
#404692
1=
#405013
0;
#405051
1>
#410000
1#
0(
#410769
16
#414323
08
#414341
0:
#414349
0=
#414716
0>
#414724
1;
#420000
1!
0#
1(
#420819
1/
#420874
06
#421006
10
#423397
1<
#423986
18
#424585
0@
#427152
11
1'
#430000
1#
0(
#430769
16
#440000
0!
0#
1(
#440874
06
#440924
0/
#441097
00
#450000
1#
0(
#450769
16
#460000
1!
0#
1(
#460819
1/
#460874
06
#461006
10
#463397
19
#464316
0;
#464387
1A
#467308
12
1&
#470000
1#
0(
#470769
16
#480000
0!
0#
1(
#480874
06
#480924
0/
#481097
00
#490000
1#
0(
#490769
16
#500000
1!
0#
1(
#500819
1/
#500874
06
#501006
10
#503397
0<
#503806
1;
#504075
1=
08
#504434
1>
#504559
1C
#504606
1B
#504643
18
#507145
14
1$
#507355
13
1%
#510000
1#
0(
#510769
16
#514323
08
#520000
0!
0#
1(
#520874
06
#520924
0/
#521097
00
#524643
18
#530000
1#
0(
#530769
16
#534323
08
#540000
1!
0#
1(
#540819
1/
#540874
06
#541006
10
#543397
09
1<
1?
#543826
0;
#543979
0=
#543986
18
#544133
17
#544325
0C
#544346
0>
#544477
08
#544586
0B
#546892
04
0$
#547293
03
0%
#550000
1#
0(
#550769
16
#560000
0!
0#
1(
#560874
06
#560924
0/
#561097
00
#570000
1#
0(
#570769
16
#580000
1!
0#
1(
#580819
1/
#580874
06
#581006
10
#583397
0<
0?
#584208
07
#584438
1;
#584441
0A
#584592
18
#584605
1@
#584669
1:
#584692
1=
#585013
0;
#585051
1>
#587191
01
0'
#587320
02
0&
#590000
1#
0(
#590769
16
#594323
08
#594341
0:
#594349
0=
#594716
0>
#594724
1;
#600000
0!
0#
1(
#600874
06
#600924
0/
#601097
00
#604643
18
#604669
1:
#604692
1=
#605013
0;
#605051
1>
#610000
1#
0(
#610769
16
#614323
08
#614341
0:
#614349
0=
#614716
0>
#614724
1;
#620000
1!
0#
1(
#620819
1/
#620874
06
#621006
10
#623397
1<
#623986
18
#624585
0@
#627152
11
1'
#630000
1#
0(
#630769
16
#640000
0!
0#
1(
#640874
06
#640924
0/
#641097
00
#650000
1#
0(
#650769
16
#660000
1!
0#
1(
#660819
1/
#660874
06
#661006
10
#663397
19
#664316
0;
#664387
1A
#667308
12
1&
#670000
1#
0(
#670769
16
#680000
0!
0#
1(
#680874
06
#680924
0/
#681097
00
#690000
1#
0(
#690769
16
#700000
1!
0#
1(
#700819
1/
#700874
06
#701006
10
#703397
0<
#703806
1;
#704075
1=
08
#704434
1>
#704559
1C
#704606
1B
#704643
18
#707145
14
1$
#707355
13
1%
#710000
1#
0(
#710769
16
#714323
08
#720000
0!
0#
1(
#720874
06
#720924
0/
#721097
00
#724643
18
#730000
1#
0(
#730769
16
#734323
08
#740000
1!
0#
1(
#740819
1/
#740874
06
#741006
10
#743397
09
1<
1?
#743826
0;
#743979
0=
#743986
18
#744133
17
#744325
0C
#744346
0>
#744477
08
#744586
0B
#746892
04
0$
#747293
03
0%
#750000
1#
0(
#750769
16
#760000
0!
0#
1(
#760874
06
#760924
0/
#761097
00
#770000
1#
0(
#770769
16
#780000
1!
0#
1(
#780819
1/
#780874
06
#781006
10
#783397
0<
0?
#784208
07
#784438
1;
#784441
0A
#784592
18
#784605
1@
#784669
1:
#784692
1=
#785013
0;
#785051
1>
#787191
01
0'
#787320
02
0&
#790000
1#
0(
#790769
16
#794323
08
#794341
0:
#794349
0=
#794716
0>
#794724
1;
#800000
0!
0#
1(
#800874
06
#800924
0/
#801097
00
#804643
18
#804669
1:
#804692
1=
#805013
0;
#805051
1>
#810000
1#
0(
#810769
16
#814323
08
#814341
0:
#814349
0=
#814716
0>
#814724
1;
#820000
1!
0#
1(
#820819
1/
#820874
06
#821006
10
#823397
1<
#823986
18
#824585
0@
#827152
11
1'
#830000
1#
0(
#830769
16
#840000
0!
0#
1(
#840874
06
#840924
0/
#841097
00
#850000
1#
0(
#850769
16
#860000
1!
0#
1(
#860819
1/
#860874
06
#861006
10
#863397
19
#864316
0;
#864387
1A
#867308
12
1&
#870000
1#
0(
#870769
16
#880000
0!
0#
1(
#880874
06
#880924
0/
#881097
00
#890000
1#
0(
#890769
16
#900000
1!
0#
1(
#900819
1/
#900874
06
#901006
10
#903397
0<
#903806
1;
#904075
1=
08
#904434
1>
#904559
1C
#904606
1B
#904643
18
#907145
14
1$
#907355
13
1%
#910000
1#
0(
#910769
16
#914323
08
#920000
0!
0#
1(
#920874
06
#920924
0/
#921097
00
#924643
18
#930000
1#
0(
#930769
16
#934323
08
#940000
1!
0#
1(
#940819
1/
#940874
06
#941006
10
#943397
09
1<
1?
#943826
0;
#943979
0=
#943986
18
#944133
17
#944325
0C
#944346
0>
#944477
08
#944586
0B
#946892
04
0$
#947293
03
0%
#950000
1#
0(
#950769
16
#960000
0!
0#
1(
#960874
06
#960924
0/
#961097
00
#970000
1#
0(
#970769
16
#980000
1!
0#
1(
#980819
1/
#980874
06
#981006
10
#983397
0<
0?
#984208
07
#984438
1;
#984441
0A
#984592
18
#984605
1@
#984669
1:
#984692
1=
#985013
0;
#985051
1>
#987191
01
0'
#987320
02
0&
#990000
1#
0(
#990769
16
#994323
08
#994341
0:
#994349
0=
#994716
0>
#994724
1;
