Parte D/simulation/qsim/Parte_D.msim.vcd
$comment
	File created using the following command:
		vcd file Parte_D.msim.vcd -direction
$end
$date
	Thu Nov 07 19:16:27 2024
$end
$version
	ModelSim Version 10.1d
$end
$timescale
	1ps
$end
$scope module Parte_D_vlg_vec_tst $end
$var reg 1 ! clock $end
$var reg 1 " reset $end
$var reg 1 # x $end
$var wire 1 $ Z1 $end
$var wire 1 % Z2 $end
$var wire 1 & Z3 $end
$var wire 1 ' Z4 $end
$scope module i1 $end
$var wire 1 ( gnd $end
$var wire 1 ) vcc $end
$var wire 1 * unknown $end
$var tri1 1 + devclrn $end
$var tri1 1 , devpor $end
$var tri1 1 - devoe $end
$var wire 1 . clock~input_o $end
$var wire 1 / clock~inputclkctrl_outclk $end
$var wire 1 0 Z4~output_o $end
$var wire 1 1 Z3~output_o $end
$var wire 1 2 Z2~output_o $end
$var wire 1 3 Z1~output_o $end
$var wire 1 4 reset~input_o $end
$var wire 1 5 x~input_o $end
$var wire 1 6 fstate.state_bit_1~0_combout $end
$var wire 1 7 fstate.state_bit_1~1_combout $end
$var wire 1 8 fstate.state_bit_1~q $end
$var wire 1 9 fstate.state_bit_0~0_combout $end
$var wire 1 : fstate.state_bit_0~1_combout $end
$var wire 1 ; fstate.state_bit_0~q $end
$var wire 1 < fstate.state_bit_2~0_combout $end
$var wire 1 = fstate.state_bit_2~1_combout $end
$var wire 1 > fstate.state_bit_2~q $end
$var wire 1 ? Z4~0_combout $end
$var wire 1 @ Z3~0_combout $end
$var wire 1 A Z2~0_combout $end
$var wire 1 B Z1~0_combout $end
$upscope $end
$upscope $end
$enddefinitions $end
#0
$dumpvars
x!
0"
0#
x$
x%
x&
x'
0(
1)
x*
1+
1,
1-
x.
x/
x0
x1
x2
x3
04
05
x6
x7
08
x9
x:
0;
x<
x=
0>
x?
x@
xA
xB
$end
#1009
0@
0B
#1011
0A
#1208
1?
#3514
06
#3576
03
0$
#3718
02
0%
#3794
00
0'
#3795
19
#3818
1<
#3888
01
0&
#3898
17
#4139
0:
#4177
1=
#20000
1#
#20769
15
#24323
07
#24341
09
#24349
0<
#24716
0=
#24724
1:
#40000
0#
#40874
05
#44643
17
#44669
19
#44692
1<
#45013
0:
#45051
1=
#60000
1#
#60769
15
#64323
07
#64341
09
#64349
0<
#64716
0=
#64724
1:
#80000
0#
#80874
05
#84643
17
#84669
19
#84692
1<
#85013
0:
#85051
1=
#100000
1"
1#
#100769
15
14
#103792
0=
#104030
16
#104323
07
#104349
0<
#120000
0#
#120874
05
#124692
1<
#140000
1#
#140769
15
#144349
0<
#160000
0#
#160874
05
#164692
1<
#180000
1#
#180769
15
#184349
0<
#200000
0"
0#
#200874
05
04
#204388
06
#204692
1<
#204772
17
#205051
1=
#220000
1#
#220769
15
#224323
07
#224341
09
#224349
0<
#224716
0=
#224724
1:
#240000
0#
#240874
05
#244643
17
#244669
19
#244692
1<
#245013
0:
#245051
1=
#260000
1#
#260769
15
#264323
07
#264341
09
#264349
0<
#264716
0=
#264724
1:
#280000
0#
#280874
05
#284643
17
#284669
19
#284692
1<
#285013
0:
#285051
1=
#300000
1"
1#
#300769
15
14
#303792
0=
#304030
16
#304323
07
#304349
0<
#320000
0#
#320874
05
#324692
1<
#340000
1#
#340769
15
#344349
0<
#360000
0#
#360874
05
#364692
1<
#380000
1#
#380769
15
#384349
0<
#400000
0"
0#
#400874
05
04
#404388
06
#404692
1<
#404772
17
#405051
1=
#420000
1#
#420769
15
#424323
07
#424341
09
#424349
0<
#424716
0=
#424724
1:
#440000
0#
#440874
05
#444643
17
#444669
19
#444692
1<
#445013
0:
#445051
1=
#460000
1#
#460769
15
#464323
07
#464341
09
#464349
0<
#464716
0=
#464724
1:
#480000
0#
#480874
05
#484643
17
#484669
19
#484692
1<
#485013
0:
#485051
1=
#500000
1"
1#
#500769
15
14
#503792
0=
#504030
16
#504323
07
#504349
0<
#520000
0#
#520874
05
#524692
1<
#540000
1#
#540769
15
#544349
0<
#560000
0#
#560874
05
#564692
1<
#580000
1#
#580769
15
#584349
0<
#600000
0"
0#
#600874
05
04
#604388
06
#604692
1<
#604772
17
#605051
1=
#620000
1#
#620769
15
#624323
07
#624341
09
#624349
0<
#624716
0=
#624724
1:
#640000
0#
#640874
05
#644643
17
#644669
19
#644692
1<
#645013
0:
#645051
1=
#660000
1#
#660769
15
#664323
07
#664341
09
#664349
0<
#664716
0=
#664724
1:
#680000
0#
#680874
05
#684643
17
#684669
19
#684692
1<
#685013
0:
#685051
1=
#700000
1"
1#
#700769
15
14
#703792
0=
#704030
16
#704323
07
#704349
0<
#720000
0#
#720874
05
#724692
1<
#740000
1#
#740769
15
#744349
0<
#760000
0#
#760874
05
#764692
1<
#780000
1#
#780769
15
#784349
0<
#800000
0"
0#
#800874
05
04
#804388
06
#804692
1<
#804772
17
#805051
1=
#820000
1#
#820769
15
#824323
07
#824341
09
#824349
0<
#824716
0=
#824724
1:
#840000
0#
#840874
05
#844643
17
#844669
19
#844692
1<
#845013
0:
#845051
1=
#860000
1#
#860769
15
#864323
07
#864341
09
#864349
0<
#864716
0=
#864724
1:
#880000
0#
#880874
05
#884643
17
#884669
19
#884692
1<
#885013
0:
#885051
1=
#900000
1"
1#
#900769
15
14
#903792
0=
#904030
16
#904323
07
#904349
0<
#920000
0#
#920874
05
#924692
1<
#940000
1#
#940769
15
#944349
0<
#960000
0#
#960874
05
#964692
1<
#980000
1#
#980769
15
#984349
0<
