Parte A/simulation/qsim/Lab_FPGA.msim.vcd
$comment
	File created using the following command:
		vcd file Lab_FPGA.msim.vcd -direction
$end
$date
	Thu Oct 24 16:16:30 2024
$end
$version
	ModelSim Version 10.1d
$end
$timescale
	1ps
$end
$scope module Lab_FPGA_vlg_vec_tst $end
$var reg 1 ! SW1 $end
$var reg 1 " SW2 $end
$var reg 1 # SW3 $end
$var wire 1 $ LED $end
$var wire 1 % sampler $end
$scope module i1 $end
$var wire 1 & gnd $end
$var wire 1 ' vcc $end
$var wire 1 ( unknown $end
$var tri1 1 ) devclrn $end
$var tri1 1 * devpor $end
$var tri1 1 + devoe $end
$var wire 1 , LED~output_o $end
$var wire 1 - SW1~input_o $end
$var wire 1 . SW2~input_o $end
$var wire 1 / SW3~input_o $end
$var wire 1 0 LED~0_combout $end
$upscope $end
$upscope $end
$enddefinitions $end
#0
$dumpvars
0!
0"
1#
x$
x%
0&
1'
x(
1)
1*
1+
x,
0-
0.
1/
x0
$end
#1357
1"
0%
#1800
0#
1%
#2123
1.
#2628
1!
0%
#2673
0/
#3414
1-
#4290
0"
1%
#5163
0.
#6028
0!
0%
#6921
0-
#7900
1#
1%
#8023
1"
0%
#8666
1/
#8789
1.
#10956
0"
1%
#11296
00
#11800
0#
0%
#11829
0.
#12604
10
#12628
1!
1%
#12673
0/
#13414
1-
#14689
1"
0%
#15455
1.
#15981
1,
1$
#16028
0!
1%
#16806
00
#16921
0-
#17622
0"
0%
#17900
1#
1%
#18495
0.
#18666
1/
#20000
1!
0#
0%
#20133
0,
0$
#20295
1#
1%
#20786
1-
#21352
0!
0%
#22245
0-
#22604
10
#22628
0#
1%
#23501
0/
#23686
1"
0%
#24452
1.
#25981
1,
1$
#26952
1!
1%
#26961
1#
0%
#27286
0"
1%
#27727
1/
#27738
1-
#28159
0.
#29294
0#
0%
#30167
0/
#31352
0!
1%
#32026
1"
0%
#32245
0-
#32792
1.
#33627
1#
1%
#34393
1/
#35960
0#
0%
#36833
0/
#36952
1!
1%
#37738
1-
#40000
1#
0%
#40766
1/
#40813
0!
1%
#41706
0-
#41840
00
#42989
0#
0%
#43013
1!
1%
#43799
1-
#43826
0"
0%
#43862
0/
#44146
0!
1%
#44699
0.
#45039
0-
#45167
0,
0$
#46346
1!
0%
#47132
1-
#47479
0!
1%
#47989
1#
0%
#48372
0-
#48419
10
#48755
1/
#49679
1!
1%
#50465
1-
#50491
0!
0%
#50704
1"
1%
#51384
0-
#51470
1.
#51796
1,
1$
#52989
0#
0%
#53091
1!
1%
#53862
0/
#53877
1-
#54236
0"
0%
#54915
00
#55109
0.
#55491
0!
1%
#56384
0-
#57370
1"
0%
#57989
1#
1%
#58091
1!
0%
#58136
1.
#58242
0,
0$
#58755
1/
#58877
1-
#60000
0!
1%
#60893
0-
#60902
0"
0%
#61775
0.
#63608
1!
1%
#64036
1"
0%
#64394
1-
#64766
0#
1%
#64802
1.
#65639
0/
#67568
0"
0%
#67908
0!
1%
#68441
0.
#68801
0-
#70000
1"
1!
0%
#70485
0"
1%
#70786
1-
#72161
10
#72352
1"
0%
#72380
0!
1%
#73118
1.
#73273
0-
#73818
0"
0%
#74691
0.
#75538
1,
1$
#75685
1"
1%
#76451
1.
#77151
0"
0%
#77566
1#
1%
#77648
00
#78024
0.
#78332
1/
#79018
1"
0%
#79784
1.
#80737
0#
1%
#80975
0,
0$
#80978
0"
0%
#81610
0/
#81851
0.
#82678
1"
1%
#82904
1#
0%
#83444
1.
#83670
1/
#84070
0#
1%
#84311
0"
0%
#84943
0/
#85184
0.
#86011
1"
1%
#86180
1!
0%
#86237
1#
1%
#86777
1.
#86966
1-
#87003
1/
#87403
0#
0%
#87644
0"
1%
#88276
0/
#88517
0.
#89344
1"
0%
#89570
1#
1%
#90000
0#
0%
#90110
1.
#90288
0"
1%
#91057
10
#91161
0.
#93738
1"
0%
#94434
1,
1$
#94504
1.
#94758
1#
1%
#95288
0"
0%
#95524
1/
#96161
0.
#97773
0!
1%
#98666
0-
#98738
1"
0%
#99504
1.
#100000
0"
1%
#100758
0#
0%
#100873
0.
#101631
0/
#102624
1"
1%
#103390
1.
#105023
0"
0%
#105764
00
#105896
0.
#109091
0,
0$
#109290
1"
1%
#109373
1!
0%
#110000
1#
0!
1%
#110056
1.
#110766
1/
#111181
0#
0%
#111689
0"
1%
#111750
1!
0%
#112054
0/
#112536
1-
#112562
0.
#112848
1#
1%
#113614
1/
#114514
0#
0%
#115387
0/
#115956
1"
1%
#116181
1#
0%
#116627
10
#116722
1.
#116947
1/
#117847
0#
1%
#118355
0"
0%
#118720
0/
#118750
0!
1%
#119228
0.
#119514
1#
0%
#119643
0-
#120004
1,
1$
#120280
1/
#121262
1"
1%
#122012
0#
0%
#122028
1.
#122595
0"
1%
#122885
0/
#123468
0.
#124018
00
#124262
1#
0%
#124595
1"
1%
#125028
1/
#125361
1.
#125928
0"
0%
#126801
0.
#127012
0#
1%
#127345
0,
0$
#127885
0/
#127928
1"
0%
#128694
1.
#129261
0"
1%
#129262
1#
0%
#130000
1!
1"
0#
1%
#130116
0"
0%
#130389
0!
1%
#130989
0.
#132723
1!
0%
#132766
1"
1%
#133148
1#
0%
#133509
1-
#133532
1.
#133722
0!
1%
#133914
1/
#134615
0-
#135116
0"
0%
#135747
0#
1%
#135989
0.
#136056
1!
0%
#136620
0/
#136842
1-
#137055
0!
1%
#137766
1"
0%
#137948
0-
#138532
1.
#139389
1!
1%
#139814
1#
0%
#140097
0"
1%
#140175
1-
#140580
1/
#140970
0.
#141897
1"
0%
#142413
0#
1%
#142663
1.
#143162
0!
0%
#143286
0/
#143430
0"
1%
#144055
0-
#144266
10
#144303
0.
#145230
1"
0%
#145996
1.
#146480
1#
1%
#146763
0"
0%
#147246
1/
#147636
0.
#147643
1,
1$
#148430
00
#148563
1"
1%
#148862
1!
0%
#149079
0#
1%
#149329
1.
#149648
1-
#149952
0/
#150000
0"
0%
#150055
1#
1%
#150821
1/
#150873
0.
#151757
0,
0$
#153162
0!
0%
#153208
1"
1%
#153388
0#
0%
#153739
10
#153974
1.
#154055
0-
#154261
0/
#155941
0"
1%
#156721
1#
0%
#156814
0.
#157116
1,
1$
#157487
1/
#158430
00
#158862
1!
1%
#159648
1-
#159874
1"
0%
#160000
0!
1%
#160054
0#
0%
#160640
1.
#160893
0-
#160927
0/
#161757
0,
0$
#162607
0"
1%
#163387
1#
0%
#163480
0.
#164153
1/
#166214
1!
1%
#166540
1"
0%
#166720
0#
1%
#167000
1-
#167306
1.
#167593
0/
#169273
0"
0%
#170000
1#
1"
1%
#170766
1/
#172604
0"
0%
#173477
0.
#175214
0!
1%
#175538
1"
0%
#176107
0-
#176304
1.
#178042
0#
1%
#178915
0/
#179270
0"
0%
#180143
0.
#180471
10
#182204
1"
1%
#182970
1.
#183457
1!
0%
#183848
1,
1$
#184243
1-
#185936
0"
1%
#186809
0.
#186957
0!
0%
#187850
0-
#188642
1#
1%
#188870
1"
0%
#189408
1/
#189636
1.
#190000
0#
0"
1%
#190873
0.
0/
#191467
1"
0%
#192233
1.
#192647
1!
1%
#193267
0"
0%
#193433
1-
#193810
1#
1%
#194140
0.
#194576
1/
#196467
1"
0%
#197233
1.
#197510
0#
1%
#197535
00
#198267
0"
0%
#198383
0/
#198847
0!
1%
#199140
0.
#199740
0-
#200000
1#
1"
0%
#200454
0#
1%
#200766
1.
#200786
0"
0%
#200862
0,
0$
#201659
0.
#202753
1"
1%
#203519
1.
#204104
10
#204119
0"
0%
#204992
0.
#206086
1"
1%
#206852
1.
#207154
1#
0%
#207452
0"
1%
#207481
1,
1$
#207920
1/
#208325
0.
#209419
1"
0%
#210000
1!
1%
#210185
1.
#210786
1-
#210833
0!
0%
#211726
0-
#211838
0"
1%
#212711
0.
#213117
0#
0%
#213990
0/
#214233
1!
1%
#214938
1"
0%
#215019
1-
#215704
1.
#216838
0"
1%
#217499
0!
0%
#217617
1#
1%
#217711
0.
#218383
1/
#218392
0-
#219938
1"
0%
#220000
0"
1%
#220899
1!
0%
#221424
00
#221685
1-
#222182
1"
1%
#222321
10
#222948
1.
#223117
0#
0%
#223990
0/
#224165
0!
1%
#225058
0-
#225982
0"
0%
#226855
0.
#227565
1!
1%
#227617
1#
0%
#228351
1-
#228383
1/
#230000
0!
0#
1%
#230568
00
#230873
0/
#230893
0-
#231578
1!
0%
#231791
1#
1%
#232182
1"
0%
#232364
1-
#232557
1/
#232948
1.
#233895
0,
0$
#235891
0#
1%
#235982
0"
0%
#236764
0/
#236855
0.
#239778
0!
1%
#240034
1"
0%
#240575
10
#240671
0-
#240800
1.
#241467
0"
1%
#242340
0.
#243367
1"
0%
#243522
1#
1%
#243952
1,
1$
#244133
1.
#244288
1/
#244800
0"
0%
#245046
00
#245673
0.
#246700
1"
1%
#247466
1.
#248133
0"
0%
#248226
10
#248373
0,
0$
#249006
0.
#249122
0#
1%
#249995
0/
#250000
1"
0%
#250766
1.
#251056
1!
1%
#251603
1,
1$
#251842
1-
#252094
0"
0%
#252967
0.
#253522
1#
1%
#254128
00
#254288
1/
#254544
1"
0%
#255310
1.
#255656
0!
1%
#255933
10
#256549
0-
#257094
0"
0%
#257967
0.
#259122
0#
1%
#259544
1"
0%
#259995
0/
#260000
1!
0"
1%
#260405
0!
0%
#261295
1#
1%
#262061
1/
#262066
1"
0%
#262628
0#
1%
#262832
1.
#263501
0/
#264266
0"
0%
#264628
1#
1%
#265139
0.
#265394
1/
#265905
1!
0%
#265961
0#
1%
#266691
1-
#266834
0/
#267066
1"
0%
#267832
1.
#267961
1#
1%
#268727
1/
#269266
0"
0%
#269294
0#
1%
#270000
0!
1"
0%
#270167
0/
#270361
1#
1%
#270893
0-
#271127
1/
#271277
00
#271378
0"
0%
#272251
0.
#272311
0#
1%
#272880
1!
0%
#273184
0/
#273666
1-
#274604
0,
0$
#275361
1#
1%
#275845
1"
0%
#275971
10
#276079
0!
1%
#276127
1/
#276611
1.
#276972
0-
#277311
0#
0%
#278044
0"
1%
#278184
0/
#278917
0.
#279348
1,
1$
#279546
1!
0%
#280000
1#
1%
#280332
1-
#280766
1/
#282511
1"
0%
#282745
0!
1%
#283113
0#
0%
#283277
1.
#283638
0-
#283986
0/
#284710
0"
1%
#285583
0.
#286212
1!
0%
#286998
1-
#289177
1"
1%
#289411
0!
0%
#289943
1.
#290000
1!
1%
#290622
0"
0%
#291051
0!
1%
#291495
0.
#291944
0-
#293251
1!
0%
#293289
1"
1%
#293713
1#
0%
#294037
1-
#294055
1.
#294384
0!
1%
#294479
1/
#295277
0-
#296584
1!
0%
#297288
0"
1%
#297370
1-
#297500
00
#297717
0!
0%
#298161
0.
#298610
0-
#299917
1!
1%
#299955
1"
0%
#300000
0!
1%
#300216
1!
0%
#300721
1.
#300757
0#
1%
#300827
0,
0$
#301002
1-
#301282
0!
0%
#301630
0/
#302175
0-
#303549
1!
1%
#303954
0"
0%
#304335
1-
#304615
0!
1%
#304827
0.
#305508
0-
#306621
1"
0%
#306882
1!
1%
#307057
1#
0%
#307387
1.
#307668
1-
#307823
1/
#307948
0!
1%
#308841
0-
#310000
1!
0%
#310757
0#
1%
#310786
1-
#311630
0/
#311862
0!
0%
#312755
0-
#314612
1!
1%
#315398
1-
#315650
0"
0%
#316523
0.
#316862
0!
1%
#317057
1#
0%
#317755
0-
#317823
1/
#319612
1!
1%
#319650
1"
0%
#320000
0#
1%
#320172
1#
0%
#320243
10
#320398
1-
#320416
1.
#321752
0"
1%
#322522
0#
0%
#322625
0.
#322835
0!
1%
#323395
0/
#323620
1,
1$
#323728
0-
#325172
1#
0%
#325685
1"
1%
#325938
1/
#326451
1.
#327522
0#
0%
#327535
1!
1%
#328321
1-
#328395
0/
#328418
0"
0%
#329291
0.
#331620
1#
1%
#332351
1"
0%
#332386
1/
#332835
0!
1%
#333117
1.
#333728
0-
#334086
0#
0%
#334959
0/
#335084
0"
1%
#335957
0.
#337535
1!
0%
#338286
1#
1%
#338321
1-
#339017
1"
0%
#339052
1/
#339092
00
#339783
1.
#340000
0!
0"
1%
#340752
0#
0%
#340873
0.
#340893
0-
#341625
0/
#342367
1"
1%
#342419
0,
0$
#343133
1.
#344700
0"
0%
#344952
1#
1%
#345573
0.
#345718
1/
#347325
1!
0%
#347418
0#
1%
#348111
1-
#348291
0/
#349033
1"
0%
#349799
1.
#350000
1#
1%
#350766
1/
#351366
0"
0%
#351370
0#
1%
#352202
10
#352239
0.
#352243
0/
#355579
1,
1$
#355699
1"
0%
#356465
1.
#356725
0!
1%
#357618
0-
#358032
0"
0%
#358270
1#
1%
#358905
0.
#359036
1/
#360647
1"
0%
#360680
0#
1%
#361413
1.
#361553
0/
#361993
00
#362614
1#
0%
#362708
1!
1%
#362847
0"
0%
#363380
1/
#363494
1-
#363720
0.
#364013
0#
1%
#364886
0/
#365320
0,
0$
#365647
1"
0%
#365947
1#
1%
#366408
0!
0%
#366413
1.
#366713
1/
#367301
0-
#367346
0#
1%
#367585
10
#367847
0"
0%
#368219
0/
#368720
0.
#369280
1#
1%
#370000
1"
0#
0%
#370766
1.
#370962
1,
1$
#371676
00
#372394
0"
1%
#372708
1!
0%
#372823
1#
1%
#373267
0.
#373494
1-
#373589
1/
#374744
1"
0%
#375003
0,
0$
#375510
1.
#376408
0!
1%
#377301
0-
#377394
0"
0%
#377585
10
#378267
0.
#378323
0#
1%
#379196
0/
#379744
1"
0%
#380000
1!
1#
0"
1%
#380024
0#
0%
#380786
1-
#380962
1,
1$
#381014
1"
1%
#381780
1.
#382147
0"
0%
#382724
0!
1%
#383020
0.
#383617
0-
#384347
1"
0%
#385113
1.
#385480
0"
1%
#386353
0.
#386424
1#
0%
#387190
1/
#387680
1"
1%
#387992
00
#388446
1.
#388813
0"
0%
#389224
1!
1%
#389686
0.
#390000
0!
0%
#390024
0#
1%
#390897
0/
#391319
0,
0$
#391829
1"
0%
#392595
1.
#392731
1!
1%
#393228
0"
0%
#393517
1-
#394101
0.
#395162
1"
1%
#395664
0!
0%
#395928
1.
#396424
1#
1%
#396557
0-
#396561
0"
0%
#397190
1/
#397434
0.
#398495
1"
1%
#399261
1.
#399397
1!
0%
#399894
0"
1%
#400000
1"
0%
#400183
1-
#400483
0#
1%
#401122
0"
0%
#401128
10
#401356
0/
#401995
0.
#402330
0!
1%
#402789
1"
0%
#403223
0-
#403555
1.
#404455
0"
1%
#404505
1,
1$
#405328
0.
#405489
00
#405583
1#
0%
#406063
1!
1%
#406122
1"
0%
#406349
1/
#406849
1-
#406888
1.
#407788
0"
1%
#408661
0.
#408816
0,
0$
#408996
0!
0%
#409455
1"
1%
#409889
0-
#410000
1!
0%
#410102
0!
1%
#410221
1.
#410287
10
#410483
0#
0%
#411356
0/
#412783
0"
1%
#413656
0.
#413664
1,
1$
#415202
1!
0%
#415583
1#
1%
#415988
1-
#416349
1/
#417369
00
#418083
1"
0%
#418849
1.
#420000
0#
1%
#420079
10
#420102
0!
0%
#420696
0,
0$
#420873
0/
#420995
0-
#421084
1#
1%
#421850
1/
#422294
00
#423456
1,
1$
#424011
0"
0%
#424217
0#
1%
#424884
0.
#425090
0/
#425202
1!
0%
#425359
10
#425621
0,
0$
#425988
1-
#427750
1#
1%
#428516
1/
#428736
1,
1$
#430463
0!
0%
#430883
0#
1%
#431356
0-
#431756
0/
#434416
1#
0%
#435182
1/
#436263
1!
1%
#437049
1-
#437211
1"
0%
#437549
0#
1%
#437977
1.
#438422
0/
#440000
1#
0%
#440463
0!
1%
#440766
1/
#441356
0-
#441422
00
#442468
0"
0%
#443341
0.
#443842
0#
1%
#444715
0/
#444749
0,
0$
#445720
10
#446263
1!
0%
#447049
1-
#448268
1"
1%
#448848
00
#449034
1.
#449097
1,
1$
#450000
0!
0%
#450893
0-
#451140
10
#451896
1!
1%
#452175
0,
0$
#452468
0"
0%
#452479
00
#452682
1-
#452842
1#
1%
#453341
0.
#453608
1/
#457061
10
#458268
1"
0%
#459034
1.
#459296
0!
1%
#460000
0#
0%
#460047
0"
1%
#460189
0-
#460438
1,
1$
#460873
0/
#460920
0.
#461914
1"
0%
#462680
1.
#462708
1#
1%
#463380
0"
0%
#463474
1/
#464253
0.
#465247
1"
1%
#466013
1.
#466713
0"
0%
#466808
0#
1%
#467586
0.
#467681
0/
#468580
1"
0%
#469346
1.
#470000
1#
0"
1%
#470766
1/
#470873
0.
#471174
0#
0%
#472047
0/
#472613
1"
1%
#473379
1.
#473814
1!
0%
#474600
1-
#475107
1#
1%
#475873
1/
#475913
0"
0%
#476147
0!
1%
#476786
0.
#477040
0-
#477840
0#
0%
#478713
0/
#480480
1!
1%
#481266
1-
#481773
1#
0%
#482539
1/
#482613
1"
1%
#482813
0!
0%
#483379
1.
#483706
0-
#484506
0#
1%
#485379
0/
#485913
0"
0%
#486786
0.
#487146
1!
1%
#487932
1-
#488439
1#
0%
#489205
1/
#489479
0!
1%
#490000
1"
0#
1!
0%
#490119
0"
1%
#490873
0/
#491255
1#
0%
#492021
1/
#492554
0#
1%
#493427
0/
#494252
1"
0%
#494588
1#
1%
#495018
1.
#495354
1/
#495887
0#
0%
#496760
0/
#496785
0"
1%
#497658
0.
#497921
1#
0%
#498013
0!
1%
#498687
1/
#498906
0-
#499220
0#
0%
#500000
1#
1%
#500700
0#
0%
#500918
1"
1%
#501573
0/
#501684
1.
#503451
0"
0%
#504324
0.
#505706
00
#507500
1#
1%
#507584
1"
0%
#508213
1!
1%
#508266
1/
#508350
1.
#508999
1-
#509033
0,
0$
#510000
0#
0!
0%
#510478
1!
1%
#510821
0"
0%
#510873
0/
#511217
1#
1%
#511694
0.
#511802
10
#511983
1/
#512744
0!
0%
#513101
00
#513637
0-
#513883
0#
1%
#514271
1"
0%
#514756
0/
#515037
1.
#515821
0"
1%
#516694
0.
#517144
1!
0%
#517883
1#
1%
#517930
1-
#518001
10
#518649
1/
#519271
1"
0%
#519410
0!
1%
#520000
0"
0%
#520303
0-
#520407
00
#520549
0#
1%
#521378
1,
1$
#521422
0/
#522732
1"
0%
#523498
1.
#523734
0,
0$
#523810
1!
1%
#524382
0"
0%
#524549
1#
1%
#524596
1-
#525255
0.
#525315
1/
#526076
0!
0%
#526969
0-
#527215
0#
1%
#527732
1"
0%
#528088
0/
#528498
1.
#529382
0"
1%
#530000
1#
1"
0%
#530669
1!
1%
#530766
1/
#530795
0"
0%
#531455
1-
#531646
0#
1%
#531668
0.
#531950
10
#532519
0/
#532619
0!
0%
#532729
1"
1%
#533495
1.
#533512
0-
#534128
0"
0%
#534596
1#
1%
#535001
0.
#535327
1,
1$
#535362
1/
#535669
1!
0%
#536062
1"
1%
#536455
1-
#536646
0#
0%
#536828
1.
#537461
0"
1%
#537519
0/
#537619
0!
0%
#538334
0.
#538512
0-
#539395
1"
1%
#539596
1#
0%
#540000
1!
0"
0#
1%
#540224
1#
0%
#540786
1-
#540794
0!
1%
#540990
1/
#541687
0-
#542047
00
#542828
1!
0%
#543614
1-
#544127
0!
1%
#544928
10
#544942
1"
0%
#545020
0-
#545374
0,
0$
#545708
1.
#546024
0#
1%
#546161
1!
0%
#546897
0/
#546947
1-
#547460
0!
1%
#548242
0"
0%
#548305
1,
1$
#548353
0-
#549115
0.
#549494
1!
1%
#550224
1#
0%
#550280
1-
#550990
1/
#551084
0!
1%
#551977
0-
#552828
00
#554928
10
#554942
1"
0%
#555708
1.
#556024
0#
1%
#556684
1!
0%
#556897
0/
#557470
1-
#558242
0"
1%
#559115
0.
#560000
1#
0%
#560766
1/
#560770
1"
1%
#561039
0#
0%
#561084
0!
1%
#561536
1.
#561572
00
#561912
0/
#561977
0-
#562570
0"
0%
#563443
0.
#564899
0,
0$
#565770
1"
1%
#566341
10
#566536
1.
#566684
1!
0%
#567470
1-
#567539
1#
1%
#567570
0"
0%
#568305
1/
#568443
0.
#569718
1,
1$
#570000
0!
1"
1%
#570378
0"
0%
#570679
1!
1%
#571039
0#
0%
#571572
00
#571912
0/
#572163
10
#574245
1"
1%
#575011
1.
#577044
0"
0%
#577539
1#
1%
#577917
0.
#578305
1/
#579279
0!
0%
#580000
0#
1%
#580172
0-
#580873
0/
#580911
1"
0%
#581677
1.
#582394
1#
1%
#583160
1/
#583710
0"
0%
#584547
00
#584583
0.
#585060
0#
1%
#585933
0/
#587577
1"
0%
#587874
0,
0$
#588343
1.
#589060
1#
1%
#589826
1/
#590490
0"
0%
#591363
0.
#591726
0#
1%
#592599
0/
#594623
1"
0%
#594790
1!
1%
#595389
1.
#595576
1-
#595726
1#
0%
#596492
1/
#597156
0"
1%
#598029
0.
#598392
0#
0%
#599265
0/
#599667
10
#600000
1#
1%
#600766
1/
#601289
1"
0%
#601403
0#
1%
#602055
1.
#602276
0/
#603044
1,
1$
#603190
0!
0%
#603653
1#
1%
#603822
0"
0%
#604083
0-
#604419
1/
#604695
0.
#606403
0#
1%
#607276
0/
#607955
1"
0%
#608458
00
#608653
1#
1%
#608721
1.
#609419
1/
#610000
1!
0%
#610786
1-
#610793
0"
1%
#611666
0.
#611785
0,
0$
#613357
10
#613531
0!
0%
#614424
0-
#615326
1"
1%
#616092
1.
#616734
1,
1$
#617459
0"
0%
#617531
1!
1%
#618317
1-
#618332
0.
#618448
0#
0%
#619321
0/
#621667
0!
1%
#621992
1"
0%
#622560
0-
#622758
1.
#624125
0"
1%
#624998
0.
#626935
00
#627067
1!
0%
#627853
1-
#628658
1"
1%
#629048
1#
0%
#629424
1.
#629814
1/
#630000
0"
0#
1%
#630262
0,
0$
#630873
0/
0.
#630953
1"
0%
#631667
0!
1%
#631719
1.
#631944
10
#631952
0"
0%
#632560
0-
#632825
0.
#634286
1"
1%
#635052
1.
#635285
0"
0%
#635321
1,
1$
#635534
1#
1%
#636158
0.
#636300
1/
#636935
00
#637067
1!
0%
#637619
1"
1%
#637853
1-
#638385
1.
#638534
0#
0%
#638618
0"
1%
#639407
0/
#639491
0.
#640262
0,
0$
#641359
1"
0%
#641944
10
#642125
1.
#642475
0!
1%
#643368
0-
#645321
1,
1$
#645534
1#
0%
#645570
00
#646300
1/
#647732
10
#648534
0#
1%
#648875
1!
0%
#648897
0,
0$
#649407
0/
#649661
1-
#650000
1#
1%
#650766
1/
#650959
0"
0%
#651109
1,
1$
#651816
0#
1%
#651832
0.
#652475
0!
0%
#652689
0/
#653368
0-
#653763
00
#655552
10
#656216
1#
1%
#656982
1/
#657743
00
#658875
1!
0%
#659661
1-
#660000
0#
0!
1%
#660766
1#
0%
#660893
0-
#660920
10
#661070
0,
0$
#661131
1!
1%
#661911
1"
0%
#661917
1-
#662316
0#
1%
#662677
1.
#662797
0!
0%
#663189
0/
#663690
0-
#664297
1,
1$
#664464
1!
1%
#664511
0"
0%
#665250
1-
#665384
0.
#665766
1#
1%
#666130
0!
0%
#666532
1/
#666911
1"
1%
#667023
0-
#667316
0#
0%
#667677
1.
#667797
1!
1%
#668189
0/
#668583
1-
#669463
0!
0%
#669511
0"
1%
#670356
0-
#670384
0.
#670639
1"
0%
#671262
1!
1%
#671405
1.
#672048
1-
#672252
1#
0%
#672322
00
#673018
1/
#673095
0!
1%
#673372
0"
0%
#673988
0-
#674245
0.
#674595
1!
1%
#675381
1-
#675452
0#
0%
#675649
0,
0$
#676325
0/
#676428
0!
1%
#677305
1"
0%
#677321
0-
#677928
1!
1%
#678071
1.
#678714
1-
#679761
0!
0%
#680038
0"
1%
#680511
1#
0%
#680654
0-
#680911
0.
#681277
1/
#683767
1!
1%
#683971
1"
0%
#684553
1-
#684737
1.
#685215
10
#686111
0#
1%
#686704
0"
0%
#686867
0!
1%
#686984
0/
#687577
0.
#687760
0-
#688592
1,
1$
#690511
1#
0%
#691117
00
#691277
1/
#693237
1"
1%
#693767
1!
0%
#694003
1.
#694444
0,
0$
#694553
1-
#695215
10
#696111
0#
1%
#696737
0"
0%
#696867
0!
1%
#696984
0/
#697610
0.
#697760
0-
#698592
1,
1$
#701323
00
#703237
1"
0%
#703286
1!
1%
#704003
1.
#704072
1-
#704440
1#
0%
#704650
0,
0$
#705206
1/
#706737
0"
1%
#707455
10
#707610
0.
#707640
0#
0%
#708174
00
#708513
0/
#708586
0!
1%
#709479
0-
#710000
1"
1!
0%
#710766
1.
#710786
1-
#712098
0"
1%
#712510
0!
0%
#712971
0.
#713403
0-
#714440
1#
1%
#715206
1/
#716691
10
#717510
1!
0%
#717640
0#
1%
#717778
00
#718098
1"
0%
#718296
1-
#718513
0/
#718864
1.
#720000
1#
1%
#720766
1/
#721845
0#
0%
#722098
0"
1%
#722510
0!
0%
#722718
0/
#722971
0.
#723403
0-
#724595
1#
1%
#725361
1/
#726691
10
#726845
0#
0%
#727510
1!
1%
#727718
0/
#727778
00
#728098
1"
0%
#728296
1-
#728864
1.
#729595
1#
1%
#730000
0!
0#
0%
#730584
1#
1%
#730893
0-
#731020
1!
0%
#731283
0"
1%
#731350
1/
#731806
1-
#732156
0.
#732316
10
#733234
0#
0%
#733270
0!
1%
#734107
0/
#734163
0-
#734283
1"
0%
#735049
1.
#735584
1#
1%
#735693
1,
1$
#736020
1!
0%
#736350
1/
#736806
1-
#737949
0"
1%
#738234
0#
0%
#738270
0!
1%
#738822
0.
#739107
0/
#739163
0-
#740949
1"
0%
#741715
1.
#743419
1#
1%
#744174
1!
0%
#744185
1/
#744615
0"
1%
#744960
1-
#745488
0.
#747615
1"
0%
#748119
0#
1%
#748174
0!
0%
#748381
1.
#748992
0/
#749062
00
#749067
0-
#750000
1#
1!
1%
#750744
0#
0%
#750786
1-
#751075
0"
1%
#751198
0!
0%
#751948
0.
#752091
0-
#752389
0,
0$
#753675
1"
1%
#754441
1.
#756075
0"
0%
#756455
10
#756948
0.
#758675
1"
1%
#759441
1.
#759832
1,
1$
#759944
1#
0%
#759998
1!
1%
#760710
1/
#760784
1-
#764886
00
#765622
0"
0%
#766495
0.
#768213
0,
0$
#770215
10
#771253
0!
1%
#771883
0#
0%
#772146
0-
#772756
0/
#773320
1!
1%
#773592
1,
1$
#774106
1-
#774586
0!
0%
#775479
0-
#776653
1!
1%
#777439
1-
#777919
0!
0%
#778383
1#
1%
#778812
0-
#779149
1/
#779222
1"
0%
#779986
1!
1%
#779988
1.
#780000
0!
0%
#780711
0"
1%
#781584
0.
#782205
1!
0%
#782378
1"
1%
#782967
0#
0%
#782991
1-
#783144
1.
#783840
0/
#784044
0"
1%
#784738
0!
0%
#784917
0.
#785631
0-
#785711
1"
1%
#786477
1.
#787377
0"
0%
#787973
00
#788250
0.
#788467
1#
1%
#788871
1!
0%
#789044
1"
1%
#789233
1/
#789657
1-
#789810
1.
#790000
0"
0%
#790811
0#
1%
#790873
0.
#791300
0,
0$
#791404
0!
0%
#791684
0/
#792297
0-
#795527
1"
1%
#795537
1!
0%
#796293
1.
#796323
1-
#797111
1#
1%
#797877
1/
#798070
0!
0%
#798963
0-
#799427
0"
1%
#799745
10
#800000
1!
0%
#800019
0!
1%
#800300
0.
#800811
0#
0%
#801684
0/
#803122
1,
1$
#805527
1"
1%
#805817
00
#806293
1.
#807111
1#
0%
#807877
1/
#809144
0,
0$
#809427
0"
1%
#809745
10
#810000
0#
1"
0%
#810873
0/
#810955
0"
1%
#811299
1#
0%
#811828
0.
#812065
1/
#812819
1!
1%
#812865
0#
0%
#813122
1,
1$
#813605
1-
#813738
0/
#814632
1#
1%
#815398
1/
#815541
00
#816198
0#
0%
#816755
1"
1%
#817071
0/
#817521
1.
#817696
10
#817965
1#
0%
#818731
1/
#818868
0,
0$
#819531
0#
1%
#820200
1#
0%
#820955
0"
1%
#820966
00
#821073
1,
1$
#821828
0.
#823700
0#
0%
#824293
0,
0$
#824573
0/
#825548
10
#826755
1"
1%
#827015
0!
0%
#827521
1.
#827908
0-
#828925
1,
1$
#830000
0"
1%
#830048
1#
0%
#830814
1/
#830873
0.
#830966
00
#831928
1"
1%
#832272
10
#832694
1.
#834048
0#
0%
#834594
0"
1%
#834921
0/
#835467
0.
#838215
1!
0%
#838594
1"
1%
#839001
1-
#839054
00
#839360
1.
#840196
1#
0%
#840952
0!
1%
#840962
1/
#841260
0"
0%
#841845
0-
#842133
0.
#842381
0,
0$
#843896
0#
1%
#844769
0/
#844900
10
#845260
1"
0%
#845619
1!
1%
#846026
1.
#846405
1-
#847618
0!
0%
#847926
0"
1%
#848277
1,
1$
#848511
0-
#848799
0.
#848902
00
#852229
0,
0$
#852285
1!
0%
#852492
1#
1%
#853071
1-
#853258
1/
#854284
0!
0%
#855177
0-
#857196
10
#858951
1!
1%
#859737
1-
#860573
1,
1$
#861421
0!
0%
#861768
1"
1%
#862314
0-
#862534
1.
#863692
0#
0%
#864565
0/
#865154
1!
1%
#865940
1-
#868087
0!
0%
#868980
0-
#869968
0"
1%
#870000
1#
0%
#870766
1/
#870841
0.
#871574
1"
1%
#871725
0#
0%
#871820
1!
1%
#872340
1.
#872598
0/
#872606
1-
#874753
0!
0%
#875646
0-
#878325
1#
1%
#878486
1!
0%
#878574
0"
1%
#879091
1/
#879272
1-
#879447
0.
#880000
0#
0!
0%
#880383
1!
1%
#880873
0/
#881392
1#
0%
#882158
1/
#882182
0!
1%
#883075
0-
#883716
1!
0%
#884042
0#
1%
#884502
1-
#884915
0/
#885515
0!
0%
#886392
1#
1%
#886408
0-
#887049
1!
0%
#887158
1/
#887835
1-
#888848
0!
1%
#889042
0#
0%
#889741
0-
#889915
0/
#890315
1"
1%
#890846
1#
0%
#891081
1.
#891612
1/
#892212
0#
1%
#892715
0"
0%
#893085
0/
#893087
1!
1%
#893588
0.
#893873
1-
#894116
00
#894179
1#
0%
#894945
1/
#895315
1"
1%
#895545
0#
0%
#896081
1.
#896418
0/
#897443
0,
0$
#897512
1#
1%
#897715
0"
0%
#897964
10
#898278
1/
#898588
0.
