Parte A/simulation/qsim/Lab_FPGA.msim.vcd
$comment
	File created using the following command:
		vcd file Lab_FPGA.msim.vcd -direction
$end
$date
	Wed Nov 06 09:56:06 2024
$end
$version
	ModelSim Version 10.1d
$end
$timescale
	1ps
$end
$scope module Lab_FPGA_vlg_vec_tst $end
$var reg 1 ! SW1 $end
$var reg 1 " SW2 $end
$var reg 1 # SW3 $end
$var wire 1 $ LED $end
$var wire 1 % sampler $end
$scope module i1 $end
$var wire 1 & gnd $end
$var wire 1 ' vcc $end
$var wire 1 ( unknown $end
$var tri1 1 ) devclrn $end
$var tri1 1 * devpor $end
$var tri1 1 + devoe $end
$var wire 1 , LED~output_o $end
$var wire 1 - SW1~input_o $end
$var wire 1 . SW2~input_o $end
$var wire 1 / SW3~input_o $end
$var wire 1 0 LED~0_combout $end
$upscope $end
$upscope $end
$enddefinitions $end
#0
$dumpvars
0!
0"
1#
x$
x%
0&
1'
x(
1)
1*
1+
x,
0-
0.
1/
x0
$end
#3938
10
#5000
0#
0%
#5873
0/
#7315
1,
1$
#10000
1#
1%
#10006
00
#10766
1/
#13333
0,
0$
#14704
10
#15000
1!
1"
0#
0%
#15766
1.
#15786
1-
#15873
0/
#18081
1,
1$
#19888
00
#23215
0,
0$
#30000
0!
0"
1#
1%
#30766
1/
#30873
0.
#30893
0-
#34593
10
#35000
0#
0%
#35873
0/
#37970
1,
1$
#40006
00
#43333
0,
0$
#45000
1!
1"
1%
#45766
1.
#45786
1-
#49218
10
#49888
00
#60000
1#
0%
#60766
1/
#65000
0!
0"
1%
#65873
0.
#65893
0-
#69593
10
#70000
0#
0%
#70873
0/
#72970
1,
1$
#75000
1!
1"
1#
1%
#75006
00
#75766
1/
1.
#75786
1-
#78333
0,
0$
#79218
10
#79888
00
#80000
0!
0"
0#
0%
#80873
0/
0.
#80893
0-
#84593
10
#85000
1!
1"
1#
1%
#85006
00
#85766
1/
1.
#85786
1-
#89218
10
#89888
00
#90000
0!
0"
0#
0%
#90873
0/
0.
#90893
0-
#94593
10
#95000
1!
1"
1%
#95006
00
#95766
1.
#95786
1-
#99218
10
#99888
00
#100000
1#
0%
#100766
1/
#105000
0!
0"
1%
#105873
0.
#105893
0-
#109593
10
#110000
0#
0%
#110873
0/
#112970
1,
1$
#115000
1#
1%
#115006
00
#115766
1/
#118333
0,
0$
#119704
10
#120000
1!
1"
0#
0%
#120766
1.
#120786
1-
#120873
0/
#123081
1,
1$
#124888
00
#128215
0,
0$
#130000
0!
0"
1#
1%
#130766
1/
#130873
0.
#130893
0-
#134593
10
#135000
1!
1"
0#
0%
#135766
1.
#135786
1-
#135873
0/
#137970
1,
1$
#139888
00
#143215
0,
0$
#150000
0!
0"
1#
1%
#150766
1/
#150873
0.
#150893
0-
#154593
10
#155000
1!
1"
0%
#155766
1.
#155786
1-
#157970
1,
1$
#159888
00
#160000
0!
0"
1%
#160873
0.
#160893
0-
#163215
0,
0$
#164593
10
#165000
0#
1!
1"
0%
#165766
1.
#165786
1-
#165873
0/
#167970
1,
1$
#169888
00
#170000
1#
0!
0"
1%
#170766
1/
#170873
0.
#170893
0-
#173215
0,
0$
#174593
10
#175000
0#
0%
#175873
0/
#177970
1,
1$
#180006
00
#183333
0,
0$
#185000
1#
1%
#185766
1/
#189704
10
#190000
1!
1"
0%
#190766
1.
#190786
1-
#193081
1,
1$
#194888
00
#195000
0#
1%
#195873
0/
#198215
0,
0$
#215000
0!
0"
0%
#215873
0.
#215893
0-
#219593
10
#220000
1!
1"
1%
#220268
00
#220766
1.
#220786
1-
#224218
10
#224888
00
#225000
0!
0"
0%
#225873
0.
#225893
0-
#229593
10
#230000
1#
1%
#230268
00
#230766
1/
#234704
10
#238081
1,
1$
#240000
1!
1"
0%
#240766
1.
#240786
1-
#244888
00
#245000
0#
1%
#245873
0/
#248215
0,
0$
#250000
1#
0%
#250766
1/
#260000
0#
1%
#260873
0/
#270000
1#
0%
#270766
1/
#275000
0!
0"
1%
#275873
0.
#275893
0-
#279593
10
#280000
0#
0%
#280873
0/
#282970
1,
1$
#285006
00
#288333
0,
0$
#295000
1!
1"
1#
1%
#295766
1/
1.
#295786
1-
#299218
10
#299888
00
#300000
0#
0%
#300873
0/
#305000
0!
0"
1%
#305873
0.
#305893
0-
#309593
10
#310000
1!
1"
0%
#310268
00
#310766
1.
#310786
1-
#314218
10
#314888
00
#315000
0!
0"
1%
#315873
0.
#315893
0-
#319593
10
#320268
00
#325000
1!
1"
0%
#325766
1.
#325786
1-
#329218
10
#329888
00
#330000
1#
1%
#330766
1/
#340000
0!
0"
0#
0%
#340873
0/
0.
#340893
0-
#344593
10
#345000
1!
1"
1%
#345006
00
#345766
1.
#345786
1-
#349218
10
#349888
00
#360000
0!
0"
0%
#360873
0.
#360893
0-
#364593
10
#365000
1#
1!
1"
1%
#365268
00
#365766
1.
1/
#365786
1-
#369218
10
#369888
00
#375000
0!
0"
0%
#375873
0.
#375893
0-
#379593
10
#380000
0#
1!
1"
1%
#380766
1.
#380786
1-
#380873
0/
#382970
1,
1$
#384888
00
#385000
1#
0!
0"
0%
#385766
1/
#385873
0.
#385893
0-
#388215
0,
0$
#389593
10
#392970
1,
1$
#395000
1!
1"
1%
#395766
1.
#395786
1-
#399888
00
#400000
0#
0%
#400873
0/
#403215
0,
0$
#405000
1#
1%
#405766
1/
#410000
0!
0"
0%
#410873
0.
#410893
0-
#414593
10
#415000
1!
1"
1%
#415766
1.
#415786
1-
#417970
1,
1$
#419888
00
#420000
0#
0!
0"
0%
#420873
0.
0/
#420893
0-
#423215
0,
0$
#424593
10
#425000
1#
1!
1"
1%
#425006
00
#425766
1.
1/
#425786
1-
#429218
10
#429888
00
#430000
0#
0%
#430873
0/
#435000
0!
0"
1#
1%
#435766
1/
#435873
0.
#435893
0-
#439593
10
#440000
0#
0%
#440873
0/
#442970
1,
1$
#445000
1!
1"
1%
#445006
00
#445766
1.
#445786
1-
#448333
0,
0$
#449218
10
#449888
00
#450000
0!
0"
0%
#450873
0.
#450893
0-
#454593
10
#455000
1#
1!
1"
1%
#455268
00
#455766
1.
1/
#455786
1-
#459218
10
#459888
00
#460000
0#
0%
#460873
0/
#465000
0!
0"
1%
#465873
0.
#465893
0-
#469593
10
#470000
1!
1"
0%
#470268
00
#470766
1.
#470786
1-
#474218
10
#474888
00
#475000
1#
0!
0"
1%
#475766
1/
#475873
0.
#475893
0-
#479593
10
#480000
0#
1!
1"
0%
#480766
1.
#480786
1-
#480873
0/
#482970
1,
1$
#484888
00
#485000
0!
0"
1%
#485873
0.
#485893
0-
#488215
0,
0$
#489593
10
#490000
1!
1"
0%
#490268
00
#490766
1.
#490786
1-
#494218
10
#494888
00
#495000
0!
0"
1%
#495873
0.
#495893
0-
#499593
10
#500000
1#
0%
#500268
00
#500766
1/
#504704
10
#505000
1!
1"
0#
1%
#505766
1.
#505786
1-
#505873
0/
#508081
1,
1$
#509888
00
#510000
0!
0"
1#
0%
#510766
1/
#510873
0.
#510893
0-
#513215
0,
0$
#514593
10
#515000
0#
1%
#515873
0/
#517970
1,
1$
#520000
1#
0%
#520006
00
#520766
1/
#523333
0,
0$
#524704
10
#525000
1!
1"
1%
#525766
1.
#525786
1-
#528081
1,
1$
#529888
00
#533215
0,
0$
#535000
0!
0"
0%
#535873
0.
#535893
0-
#539593
10
#540000
1!
1"
1%
#540766
1.
#540786
1-
#542970
1,
1$
#544888
00
#545000
0#
0%
#545873
0/
#548215
0,
0$
#550000
1#
1%
#550766
1/
#555000
0!
0"
0%
#555873
0.
#555893
0-
#559593
10
#560000
0#
1!
1"
1%
#560766
1.
#560786
1-
#560873
0/
#562970
1,
1$
#564888
00
#568215
0,
0$
#575000
1#
0%
#575766
1/
#580000
0!
0"
0#
1%
#580873
0/
0.
#580893
0-
#584593
10
#585000
1!
1"
1#
0%
#585006
00
#585766
1/
1.
#585786
1-
#589218
10
#589888
00
#590000
0#
1%
#590873
0/
#595000
0!
0"
0%
#595873
0.
#595893
0-
#599593
10
#600000
1#
1%
#600268
00
#600766
1/
#604704
10
#608081
1,
1$
#610000
0#
0%
#610873
0/
#615000
1!
1"
1%
#615006
00
#615766
1.
#615786
1-
#618333
0,
0$
#619218
10
#619888
00
#620000
1#
0!
0"
0%
#620766
1/
#620873
0.
#620893
0-
#624593
10
#627970
1,
1$
#635000
0#
1%
#635873
0/
#640000
1!
1"
1#
0%
#640006
00
#640766
1/
1.
#640786
1-
#643333
0,
0$
#644218
10
#644888
00
#645000
0#
1%
#645873
0/
#655000
1#
0%
#655766
1/
#670000
0#
1%
#670873
0/
#675000
1#
0%
#675766
1/
#680000
0!
0"
0#
1%
#680873
0/
0.
#680893
0-
#684593
10
#685000
1!
1"
0%
#685006
00
#685766
1.
#685786
1-
#689218
10
#689888
00
#690000
1#
1%
#690766
1/
#695000
0#
0%
#695873
0/
#700000
0!
0"
1%
#700873
0.
#700893
0-
#704593
10
#705000
1#
1!
1"
0%
#705268
00
#705766
1.
1/
#705786
1-
#709218
10
#709888
00
#715000
0#
1%
#715873
0/
#720000
0!
0"
1#
0%
#720766
1/
#720873
0.
#720893
0-
#724593
10
#725000
1!
1"
1%
#725766
1.
#725786
1-
#727970
1,
1$
#729888
00
#730000
0#
0!
0"
0%
#730873
0.
0/
#730893
0-
#733215
0,
0$
#734593
10
#735000
1#
1%
#735006
00
#735766
1/
#739704
10
#743081
1,
1$
#745000
1!
1"
0%
#745766
1.
#745786
1-
#749888
00
#753215
0,
0$
#755000
0#
1%
#755873
0/
#765000
0!
0"
1#
0%
#765766
1/
#765873
0.
#765893
0-
#769593
10
#770000
1!
1"
0#
1%
#770766
1.
#770786
1-
#770873
0/
#772970
1,
1$
#774888
00
#775000
1#
0%
#775766
1/
#778215
0,
0$
#780000
0#
1%
#780873
0/
#785000
0!
0"
1#
0%
#785766
1/
#785873
0.
#785893
0-
#789593
10
#790000
1!
1"
0#
1%
#790766
1.
#790786
1-
#790873
0/
#792970
1,
1$
#794888
00
#795000
0!
0"
1#
0%
#795766
1/
#795873
0.
#795893
0-
#798215
0,
0$
#799593
10
#800000
1!
1"
1%
#800766
1.
#800786
1-
#802970
1,
1$
#804888
00
#805000
0#
0%
#805873
0/
#808215
0,
0$
#810000
1#
1%
#810766
1/
#815000
0#
0%
#815873
0/
#820000
0!
0"
1#
1%
#820766
1/
#820873
0.
#820893
0-
#824593
10
#825000
1!
1"
0%
#825766
1.
#825786
1-
#827970
1,
1$
#829888
00
#830000
0#
0!
0"
1%
#830873
0.
0/
#830893
0-
#833215
0,
0$
#834593
10
#835006
00
#840000
1#
1!
1"
0%
#840766
1.
1/
#840786
1-
#844218
10
#844888
00
#845000
0!
0"
1%
#845873
0.
#845893
0-
#849593
10
#852970
1,
1$
#855000
1!
1"
0%
#855766
1.
#855786
1-
#859888
00
#860000
0!
0"
1%
#860873
0.
#860893
0-
#863215
0,
0$
#864593
10
#865000
1!
1"
0%
#865766
1.
#865786
1-
#867970
1,
1$
#869888
00
#870000
0#
1%
#870873
0/
#873215
0,
0$
#880000
1#
0%
#880766
1/
#885000
0#
1%
#885873
0/
#890000
1#
0%
#890766
1/
#895000
0!
0"
0#
1%
#895873
0/
0.
#895893
0-
#899593
10
#900006
00
#905000
1!
1"
1#
0%
#905766
1/
1.
#905786
1-
#909218
10
#909888
00
#910000
0!
0"
1%
#910873
0.
#910893
0-
#914593
10
#915000
1!
1"
0%
#915766
1.
#915786
1-
#917970
1,
1$
#919888
00
#920000
0#
0!
0"
1%
#920873
0.
0/
#920893
0-
#923215
0,
0$
#924593
10
#925000
1!
1"
0%
#925006
00
#925766
1.
#925786
1-
#929218
10
#929888
00
#930000
1#
1%
#930766
1/
#935000
0!
0"
0#
0%
#935873
0/
0.
#935893
0-
#939593
10
#940006
00
#950000
1#
1%
#950766
1/
#954704
10
#958081
1,
1$
#960000
1!
1"
0%
#960766
1.
#960786
1-
#964888
00
#965000
0#
1%
#965873
0/
#968215
0,
0$
#970000
0!
0"
1#
0%
#970766
1/
#970873
0.
#970893
0-
#974593
10
#975000
1!
1"
1%
#975766
1.
#975786
1-
#977970
1,
1$
#979888
00
#980000
0#
0!
0"
0%
#980873
0.
0/
#980893
0-
#983215
0,
0$
#984593
10
#985006
00
#990000
1!
1"
1%
#990766
1.
#990786
1-
#994218
10
#994888
00
