Parte A/simulation/qsim/Lab_FPGA.msim.vcd
$comment
	File created using the following command:
		vcd file Lab_FPGA.msim.vcd -direction
$end
$date
	Wed Nov 06 12:09:01 2024
$end
$version
	ModelSim Version 10.1d
$end
$timescale
	1ps
$end
$scope module Block1_vlg_vec_tst $end
$var reg 1 ! SW1 $end
$var reg 1 " SW2 $end
$var reg 1 # SW3 $end
$var wire 1 $ LED $end
$var wire 1 % sampler $end
$scope module i1 $end
$var wire 1 & gnd $end
$var wire 1 ' vcc $end
$var wire 1 ( unknown $end
$var tri1 1 ) devclrn $end
$var tri1 1 * devpor $end
$var tri1 1 + devoe $end
$var wire 1 , LED~output_o $end
$var wire 1 - SW1~input_o $end
$var wire 1 . SW2~input_o $end
$var wire 1 / SW3~input_o $end
$var wire 1 0 inst|LED~combout $end
$upscope $end
$upscope $end
$enddefinitions $end
#0
$dumpvars
0!
0"
0#
0$
x%
0&
1'
x(
1)
1*
1+
0,
0-
0.
0/
00
$end
#5000
1!
1-
0%
10
1,
1$
#10000
1"
0!
1.
0-
1%
#15000
1!
1-
0%
00
0,
0$
#20000
0"
0!
0.
0-
1%
#25000
1!
1-
0%
10
1,
1$
#30000
1#
1"
0!
1/
1.
0-
1%
#35000
1!
1-
0%
00
0,
0$
#40000
0"
0!
0.
0-
1%
10
1,
1$
#45000
1!
1-
0%
#50000
1"
0!
1.
0-
1%
#55000
1!
1-
0%
00
0,
0$
#60000
0#
0"
0!
0/
0.
0-
1%
#65000
1!
1-
0%
10
1,
1$
#70000
1"
0!
1.
0-
1%
#75000
1!
1-
0%
00
0,
0$
#80000
0"
0!
0.
0-
1%
#85000
1!
1-
0%
10
1,
1$
#90000
1#
1"
0!
1/
1.
0-
1%
#95000
1!
1-
0%
00
0,
0$
#100000
0"
0!
0.
0-
1%
10
1,
1$
#105000
1!
1-
0%
#110000
1"
0!
1.
0-
1%
#115000
1!
1-
0%
00
0,
0$
#120000
0#
0"
0!
0/
0.
0-
1%
#125000
1!
1-
0%
10
1,
1$
#130000
1"
0!
1.
0-
1%
#135000
1!
1-
0%
00
0,
0$
#140000
0"
0!
0.
0-
1%
#145000
1!
1-
0%
10
1,
1$
#150000
1#
1"
0!
1/
1.
0-
1%
#155000
1!
1-
0%
00
0,
0$
#160000
0"
0!
0.
0-
1%
10
1,
1$
#165000
1!
1-
0%
#170000
1"
0!
1.
0-
1%
#175000
1!
1-
0%
00
0,
0$
#180000
0#
0"
0!
0/
0.
0-
1%
#185000
1!
1-
0%
10
1,
1$
#190000
1"
0!
1.
0-
1%
#195000
1!
1-
0%
00
0,
0$
#200000
0"
0!
0.
0-
1%
#205000
1!
1-
0%
10
1,
1$
#210000
1#
1"
0!
1/
1.
0-
1%
#215000
1!
1-
0%
00
0,
0$
#220000
0"
0!
0.
0-
1%
10
1,
1$
#225000
1!
1-
0%
#230000
1"
0!
1.
0-
1%
#235000
1!
1-
0%
00
0,
0$
#240000
0#
0"
0!
0/
0.
0-
1%
#245000
1!
1-
0%
10
1,
1$
#250000
1"
0!
1.
0-
1%
#255000
1!
1-
0%
00
0,
0$
#260000
0"
0!
0.
0-
1%
#265000
1!
1-
0%
10
1,
1$
#270000
1#
1"
0!
1/
1.
0-
1%
#275000
1!
1-
0%
00
0,
0$
#280000
0"
0!
0.
0-
1%
10
1,
1$
#285000
1!
1-
0%
#290000
1"
0!
1.
0-
1%
#295000
1!
1-
0%
00
0,
0$
#300000
0#
0"
0!
0/
0.
0-
1%
#305000
1!
1-
0%
10
1,
1$
#310000
1"
0!
1.
0-
1%
#315000
1!
1-
0%
00
0,
0$
#320000
0"
0!
0.
0-
1%
#325000
1!
1-
0%
10
1,
1$
#330000
1#
1"
0!
1/
1.
0-
1%
#335000
1!
1-
0%
00
0,
0$
#340000
0"
0!
0.
0-
1%
10
1,
1$
#345000
1!
1-
0%
#350000
1"
0!
1.
0-
1%
#355000
1!
1-
0%
00
0,
0$
#360000
0#
0"
0!
0/
0.
0-
1%
#365000
1!
1-
0%
10
1,
1$
#370000
1"
0!
1.
0-
1%
#375000
1!
1-
0%
00
0,
0$
#380000
0"
0!
0.
0-
1%
#385000
1!
1-
0%
10
1,
1$
#390000
1#
1"
0!
1/
1.
0-
1%
#395000
1!
1-
0%
00
0,
0$
#400000
0"
0!
0.
0-
1%
10
1,
1$
#405000
1!
1-
0%
#410000
1"
0!
1.
0-
1%
#415000
1!
1-
0%
00
0,
0$
#420000
0#
0"
0!
0/
0.
0-
1%
#425000
1!
1-
0%
10
1,
1$
#430000
1"
0!
1.
0-
1%
#435000
1!
1-
0%
00
0,
0$
#440000
0"
0!
0.
0-
1%
#445000
1!
1-
0%
10
1,
1$
#450000
1#
1"
0!
1/
1.
0-
1%
#455000
1!
1-
0%
00
0,
0$
#460000
0"
0!
0.
0-
1%
10
1,
1$
#465000
1!
1-
0%
#470000
1"
0!
1.
0-
1%
#475000
1!
1-
0%
00
0,
0$
#480000
0#
0"
0!
0/
0.
0-
1%
#485000
1!
1-
0%
10
1,
1$
#490000
1"
0!
1.
0-
1%
#495000
1!
1-
0%
00
0,
0$
#500000
0"
0!
0.
0-
1%
#505000
1!
1-
0%
10
1,
1$
#510000
1#
1"
0!
1/
1.
0-
1%
#515000
1!
1-
0%
00
0,
0$
#520000
0"
0!
0.
0-
1%
10
1,
1$
#525000
1!
1-
0%
#530000
1"
0!
1.
0-
1%
#535000
1!
1-
0%
00
0,
0$
#540000
0#
0"
0!
0/
0.
0-
1%
#545000
1!
1-
0%
10
1,
1$
#550000
1"
0!
1.
0-
1%
#555000
1!
1-
0%
00
0,
0$
#560000
0"
0!
0.
0-
1%
#565000
1!
1-
0%
10
1,
1$
#570000
1#
1"
0!
1/
1.
0-
1%
#575000
1!
1-
0%
00
0,
0$
#580000
0"
0!
0.
0-
1%
10
1,
1$
#585000
1!
1-
0%
#590000
1"
0!
1.
0-
1%
#595000
1!
1-
0%
00
0,
0$
#600000
0#
0"
0!
0/
0.
0-
1%
#605000
1!
1-
0%
10
1,
1$
#610000
1"
0!
1.
0-
1%
#615000
1!
1-
0%
00
0,
0$
#620000
0"
0!
0.
0-
1%
#625000
1!
1-
0%
10
1,
1$
#630000
1#
1"
0!
1/
1.
0-
1%
#635000
1!
1-
0%
00
0,
0$
#640000
0"
0!
0.
0-
1%
10
1,
1$
#645000
1!
1-
0%
#650000
1"
0!
1.
0-
1%
#655000
1!
1-
0%
00
0,
0$
#660000
0#
0"
0!
0/
0.
0-
1%
#665000
1!
1-
0%
10
1,
1$
#670000
1"
0!
1.
0-
1%
#675000
1!
1-
0%
00
0,
0$
#680000
0"
0!
0.
0-
1%
#685000
1!
1-
0%
10
1,
1$
#690000
1#
1"
0!
1/
1.
0-
1%
#695000
1!
1-
0%
00
0,
0$
#700000
0"
0!
0.
0-
1%
10
1,
1$
#705000
1!
1-
0%
#710000
1"
0!
1.
0-
1%
#715000
1!
1-
0%
00
0,
0$
#720000
0#
0"
0!
0/
0.
0-
1%
#725000
1!
1-
0%
10
1,
1$
#730000
1"
0!
1.
0-
1%
#735000
1!
1-
0%
00
0,
0$
#740000
0"
0!
0.
0-
1%
#745000
1!
1-
0%
10
1,
1$
#750000
1#
1"
0!
1/
1.
0-
1%
#755000
1!
1-
0%
00
0,
0$
#760000
0"
0!
0.
0-
1%
10
1,
1$
#765000
1!
1-
0%
#770000
1"
0!
1.
0-
1%
#775000
1!
1-
0%
00
0,
0$
#780000
0#
0"
0!
0/
0.
0-
1%
#785000
1!
1-
0%
10
1,
1$
#790000
1"
0!
1.
0-
1%
#795000
1!
1-
0%
00
0,
0$
#800000
0"
0!
0.
0-
1%
#805000
1!
1-
0%
10
1,
1$
#810000
1#
1"
0!
1/
1.
0-
1%
#815000
1!
1-
0%
00
0,
0$
#820000
0"
0!
0.
0-
1%
10
1,
1$
#825000
1!
1-
0%
#830000
1"
0!
1.
0-
1%
#835000
1!
1-
0%
00
0,
0$
#840000
0#
0"
0!
0/
0.
0-
1%
#845000
1!
1-
0%
10
1,
1$
#850000
1"
0!
1.
0-
1%
#855000
1!
1-
0%
00
0,
0$
#860000
0"
0!
0.
0-
1%
#865000
1!
1-
0%
10
1,
1$
#870000
1#
1"
0!
1/
1.
0-
1%
#875000
1!
1-
0%
00
0,
0$
#880000
0"
0!
0.
0-
1%
10
1,
1$
#885000
1!
1-
0%
#890000
1"
0!
1.
0-
1%
#895000
1!
1-
0%
00
0,
0$
#900000
0#
0"
0!
0/
0.
0-
1%
#905000
1!
1-
0%
10
1,
1$
#910000
1"
0!
1.
0-
1%
#915000
1!
1-
0%
00
0,
0$
#920000
0"
0!
0.
0-
1%
#925000
1!
1-
0%
10
1,
1$
#930000
1#
1"
0!
1/
1.
0-
1%
#935000
1!
1-
0%
00
0,
0$
#940000
0"
0!
0.
0-
1%
10
1,
1$
#945000
1!
1-
0%
#950000
1"
0!
1.
0-
1%
#955000
1!
1-
0%
00
0,
0$
#960000
0#
0"
0!
0/
0.
0-
1%
#965000
1!
1-
0%
10
1,
1$
#970000
1"
0!
1.
0-
1%
#975000
1!
1-
0%
00
0,
0$
#980000
0"
0!
0.
0-
1%
#985000
1!
1-
0%
10
1,
1$
#990000
1#
1"
0!
1/
1.
0-
1%
#995000
1!
1-
0%
00
0,
0$
